%YAML 1.1
%TAG !u! tag:unity3d.com,2011:
--- !u!29 &1
OcclusionCullingSettings:
  m_ObjectHideFlags: 0
  serializedVersion: 2
  m_OcclusionBakeSettings:
    smallestOccluder: 5
    smallestHole: 0.25
    backfaceThreshold: 100
  m_SceneGUID: 00000000000000000000000000000000
  m_OcclusionCullingData: {fileID: 0}
--- !u!104 &2
RenderSettings:
  m_ObjectHideFlags: 0
  serializedVersion: 9
  m_Fog: 0
  m_FogColor: {r: 0.5, g: 0.5, b: 0.5, a: 1}
  m_FogMode: 3
  m_FogDensity: 0.01
  m_LinearFogStart: 0
  m_LinearFogEnd: 300
  m_AmbientSkyColor: {r: 0.212, g: 0.227, b: 0.259, a: 1}
  m_AmbientEquatorColor: {r: 0.114, g: 0.125, b: 0.133, a: 1}
  m_AmbientGroundColor: {r: 0.047, g: 0.043, b: 0.035, a: 1}
  m_AmbientIntensity: 1
  m_AmbientMode: 0
  m_SubtractiveShadowColor: {r: 0.42, g: 0.478, b: 0.627, a: 1}
  m_SkyboxMaterial: {fileID: 10304, guid: 0000000000000000f000000000000000, type: 0}
  m_HaloStrength: 0.5
  m_FlareStrength: 1
  m_FlareFadeSpeed: 3
  m_HaloTexture: {fileID: 0}
  m_SpotCookie: {fileID: 10001, guid: 0000000000000000e000000000000000, type: 0}
  m_DefaultReflectionMode: 0
  m_DefaultReflectionResolution: 128
  m_ReflectionBounces: 1
  m_ReflectionIntensity: 1
  m_CustomReflection: {fileID: 0}
  m_Sun: {fileID: 0}
  m_IndirectSpecularColor: {r: 0.37311926, g: 0.38073996, b: 0.35872698, a: 1}
  m_UseRadianceAmbientProbe: 0
--- !u!157 &3
LightmapSettings:
  m_ObjectHideFlags: 0
  serializedVersion: 11
  m_GIWorkflowMode: 0
  m_GISettings:
    serializedVersion: 2
    m_BounceScale: 1
    m_IndirectOutputScale: 1
    m_AlbedoBoost: 1
    m_EnvironmentLightingMode: 0
    m_EnableBakedLightmaps: 1
    m_EnableRealtimeLightmaps: 0
  m_LightmapEditorSettings:
    serializedVersion: 10
    m_Resolution: 2
    m_BakeResolution: 10
    m_AtlasSize: 512
    m_AO: 0
    m_AOMaxDistance: 1
    m_CompAOExponent: 1
    m_CompAOExponentDirect: 0
    m_Padding: 2
    m_LightmapParameters: {fileID: 0}
    m_LightmapsBakeMode: 1
    m_TextureCompression: 1
    m_FinalGather: 0
    m_FinalGatherFiltering: 1
    m_FinalGatherRayCount: 256
    m_ReflectionCompression: 2
    m_MixedBakeMode: 2
    m_BakeBackend: 1
    m_PVRSampling: 1
    m_PVRDirectSampleCount: 32
    m_PVRSampleCount: 256
    m_PVRBounces: 2
    m_PVRFilterTypeDirect: 0
    m_PVRFilterTypeIndirect: 0
    m_PVRFilterTypeAO: 0
    m_PVRFilteringMode: 1
    m_PVRCulling: 1
    m_PVRFilteringGaussRadiusDirect: 1
    m_PVRFilteringGaussRadiusIndirect: 5
    m_PVRFilteringGaussRadiusAO: 2
    m_PVRFilteringAtrousPositionSigmaDirect: 0.5
    m_PVRFilteringAtrousPositionSigmaIndirect: 2
    m_PVRFilteringAtrousPositionSigmaAO: 1
    m_ShowResolutionOverlay: 1
  m_LightingDataAsset: {fileID: 0}
  m_UseShadowmask: 1
--- !u!196 &4
NavMeshSettings:
  serializedVersion: 2
  m_ObjectHideFlags: 0
  m_BuildSettings:
    serializedVersion: 2
    agentTypeID: 0
    agentRadius: 0.5
    agentHeight: 2
    agentSlope: 45
    agentClimb: 0.4
    ledgeDropHeight: 0
    maxJumpAcrossDistance: 0
    minRegionArea: 2
    manualCellSize: 0
    cellSize: 0.16666667
    manualTileSize: 0
    tileSize: 256
    accuratePlacement: 0
    debug:
      m_Flags: 0
  m_NavMeshData: {fileID: 0}
--- !u!1 &202968425
GameObject:
  m_ObjectHideFlags: 0
  m_CorrespondingSourceObject: {fileID: 0}
  m_PrefabInstance: {fileID: 0}
  m_PrefabAsset: {fileID: 0}
  serializedVersion: 6
  m_Component:
  - component: {fileID: 202968428}
  - component: {fileID: 202968427}
  - component: {fileID: 202968426}
  m_Layer: 0
  m_Name: EventSystem
  m_TagString: Untagged
  m_Icon: {fileID: 0}
  m_NavMeshLayer: 0
  m_StaticEditorFlags: 0
  m_IsActive: 1
--- !u!114 &202968426
MonoBehaviour:
  m_ObjectHideFlags: 0
  m_CorrespondingSourceObject: {fileID: 0}
  m_PrefabInstance: {fileID: 0}
  m_PrefabAsset: {fileID: 0}
  m_GameObject: {fileID: 202968425}
  m_Enabled: 1
  m_EditorHideFlags: 0
  m_Script: {fileID: 1077351063, guid: f70555f144d8491a825f0804e09c671c, type: 3}
  m_Name: 
  m_EditorClassIdentifier: 
  m_HorizontalAxis: Horizontal
  m_VerticalAxis: Vertical
  m_SubmitButton: Submit
  m_CancelButton: Cancel
  m_InputActionsPerSecond: 10
  m_RepeatDelay: 0.5
  m_ForceModuleActive: 0
--- !u!114 &202968427
MonoBehaviour:
  m_ObjectHideFlags: 0
  m_CorrespondingSourceObject: {fileID: 0}
  m_PrefabInstance: {fileID: 0}
  m_PrefabAsset: {fileID: 0}
  m_GameObject: {fileID: 202968425}
  m_Enabled: 1
  m_EditorHideFlags: 0
  m_Script: {fileID: -619905303, guid: f70555f144d8491a825f0804e09c671c, type: 3}
  m_Name: 
  m_EditorClassIdentifier: 
  m_FirstSelected: {fileID: 0}
  m_sendNavigationEvents: 1
  m_DragThreshold: 10
--- !u!4 &202968428
Transform:
  m_ObjectHideFlags: 0
  m_CorrespondingSourceObject: {fileID: 0}
  m_PrefabInstance: {fileID: 0}
  m_PrefabAsset: {fileID: 0}
  m_GameObject: {fileID: 202968425}
  m_LocalRotation: {x: 0, y: 0, z: 0, w: 1}
  m_LocalPosition: {x: 0, y: 0, z: 0}
  m_LocalScale: {x: 1, y: 1, z: 1}
  m_Children: []
  m_Father: {fileID: 0}
  m_RootOrder: 2
  m_LocalEulerAnglesHint: {x: 0, y: 0, z: 0}
--- !u!1001 &302420579
PrefabInstance:
  m_ObjectHideFlags: 0
  serializedVersion: 2
  m_Modification:
    m_TransformParent: {fileID: 1451909041}
    m_Modifications:
    - target: {fileID: 8733173158241215517, guid: 8d9478a1d597f4fd3bc46290e2d84573,
        type: 3}
      propertyPath: m_Name
      value: Ali Char
      objectReference: {fileID: 0}
    - target: {fileID: 8733173158241215519, guid: 8d9478a1d597f4fd3bc46290e2d84573,
        type: 3}
      propertyPath: m_Sprite
      value: 
      objectReference: {fileID: 21300000, guid: 05b4a03302050475fa53c89b0fc6995d,
        type: 3}
    - target: {fileID: 8733173158241215519, guid: 8d9478a1d597f4fd3bc46290e2d84573,
        type: 3}
      propertyPath: m_RaycastTarget
      value: 0
      objectReference: {fileID: 0}
    - target: {fileID: 8733173158241215516, guid: 8d9478a1d597f4fd3bc46290e2d84573,
        type: 3}
      propertyPath: m_LocalPosition.x
      value: 0
      objectReference: {fileID: 0}
    - target: {fileID: 8733173158241215516, guid: 8d9478a1d597f4fd3bc46290e2d84573,
        type: 3}
      propertyPath: m_LocalPosition.y
      value: 0
      objectReference: {fileID: 0}
    - target: {fileID: 8733173158241215516, guid: 8d9478a1d597f4fd3bc46290e2d84573,
        type: 3}
      propertyPath: m_LocalPosition.z
      value: 0
      objectReference: {fileID: 0}
    - target: {fileID: 8733173158241215516, guid: 8d9478a1d597f4fd3bc46290e2d84573,
        type: 3}
      propertyPath: m_LocalRotation.x
      value: -0
      objectReference: {fileID: 0}
    - target: {fileID: 8733173158241215516, guid: 8d9478a1d597f4fd3bc46290e2d84573,
        type: 3}
      propertyPath: m_LocalRotation.y
      value: -0
      objectReference: {fileID: 0}
    - target: {fileID: 8733173158241215516, guid: 8d9478a1d597f4fd3bc46290e2d84573,
        type: 3}
      propertyPath: m_LocalRotation.z
      value: -0
      objectReference: {fileID: 0}
    - target: {fileID: 8733173158241215516, guid: 8d9478a1d597f4fd3bc46290e2d84573,
        type: 3}
      propertyPath: m_LocalRotation.w
      value: 1
      objectReference: {fileID: 0}
    - target: {fileID: 8733173158241215516, guid: 8d9478a1d597f4fd3bc46290e2d84573,
        type: 3}
      propertyPath: m_RootOrder
      value: 4
      objectReference: {fileID: 0}
    - target: {fileID: 8733173158241215516, guid: 8d9478a1d597f4fd3bc46290e2d84573,
        type: 3}
      propertyPath: m_LocalEulerAnglesHint.x
      value: 0
      objectReference: {fileID: 0}
    - target: {fileID: 8733173158241215516, guid: 8d9478a1d597f4fd3bc46290e2d84573,
        type: 3}
      propertyPath: m_LocalEulerAnglesHint.y
      value: 0
      objectReference: {fileID: 0}
    - target: {fileID: 8733173158241215516, guid: 8d9478a1d597f4fd3bc46290e2d84573,
        type: 3}
      propertyPath: m_LocalEulerAnglesHint.z
      value: 0
      objectReference: {fileID: 0}
    - target: {fileID: 8733173158241215516, guid: 8d9478a1d597f4fd3bc46290e2d84573,
        type: 3}
      propertyPath: m_AnchoredPosition.x
      value: -352.1
      objectReference: {fileID: 0}
    - target: {fileID: 8733173158241215516, guid: 8d9478a1d597f4fd3bc46290e2d84573,
        type: 3}
      propertyPath: m_AnchoredPosition.y
      value: -195.8
      objectReference: {fileID: 0}
    - target: {fileID: 8733173158241215516, guid: 8d9478a1d597f4fd3bc46290e2d84573,
        type: 3}
      propertyPath: m_SizeDelta.x
      value: 319.7
      objectReference: {fileID: 0}
    - target: {fileID: 8733173158241215516, guid: 8d9478a1d597f4fd3bc46290e2d84573,
        type: 3}
      propertyPath: m_SizeDelta.y
      value: 376.4
      objectReference: {fileID: 0}
    - target: {fileID: 8733173158241215516, guid: 8d9478a1d597f4fd3bc46290e2d84573,
        type: 3}
      propertyPath: m_AnchorMin.x
      value: 0.5
      objectReference: {fileID: 0}
    - target: {fileID: 8733173158241215516, guid: 8d9478a1d597f4fd3bc46290e2d84573,
        type: 3}
      propertyPath: m_AnchorMin.y
      value: 0.5
      objectReference: {fileID: 0}
    - target: {fileID: 8733173158241215516, guid: 8d9478a1d597f4fd3bc46290e2d84573,
        type: 3}
      propertyPath: m_AnchorMax.x
      value: 0.5
      objectReference: {fileID: 0}
    - target: {fileID: 8733173158241215516, guid: 8d9478a1d597f4fd3bc46290e2d84573,
        type: 3}
      propertyPath: m_AnchorMax.y
      value: 0.5
      objectReference: {fileID: 0}
    - target: {fileID: 8733173158241215516, guid: 8d9478a1d597f4fd3bc46290e2d84573,
        type: 3}
      propertyPath: m_Pivot.x
      value: 0.5
      objectReference: {fileID: 0}
    - target: {fileID: 8733173158241215516, guid: 8d9478a1d597f4fd3bc46290e2d84573,
        type: 3}
      propertyPath: m_Pivot.y
      value: 0.5
      objectReference: {fileID: 0}
    - target: {fileID: 8733173160004696490, guid: 8d9478a1d597f4fd3bc46290e2d84573,
        type: 3}
      propertyPath: m_IsActive
      value: 0
      objectReference: {fileID: 0}
    m_RemovedComponents: []
  m_SourcePrefab: {fileID: 100100000, guid: 8d9478a1d597f4fd3bc46290e2d84573, type: 3}
--- !u!224 &302420580 stripped
RectTransform:
  m_CorrespondingSourceObject: {fileID: 8733173158241215516, guid: 8d9478a1d597f4fd3bc46290e2d84573,
    type: 3}
  m_PrefabInstance: {fileID: 302420579}
  m_PrefabAsset: {fileID: 0}
--- !u!1 &463830921
GameObject:
  m_ObjectHideFlags: 0
  m_CorrespondingSourceObject: {fileID: 0}
  m_PrefabInstance: {fileID: 0}
  m_PrefabAsset: {fileID: 0}
  serializedVersion: 6
  m_Component:
  - component: {fileID: 463830922}
  - component: {fileID: 463830924}
  - component: {fileID: 463830923}
  - component: {fileID: 463830925}
  m_Layer: 5
  m_Name: Menu
  m_TagString: Untagged
  m_Icon: {fileID: 0}
  m_NavMeshLayer: 0
  m_StaticEditorFlags: 0
  m_IsActive: 1
--- !u!224 &463830922
RectTransform:
  m_ObjectHideFlags: 0
  m_CorrespondingSourceObject: {fileID: 0}
  m_PrefabInstance: {fileID: 0}
  m_PrefabAsset: {fileID: 0}
  m_GameObject: {fileID: 463830921}
  m_LocalRotation: {x: -0, y: -0, z: -0, w: 1}
  m_LocalPosition: {x: 0, y: 0, z: 0}
  m_LocalScale: {x: 1, y: 1, z: 1}
  m_Children:
  - {fileID: 1604330843}
  - {fileID: 1771798040}
  - {fileID: 903295296}
  m_Father: {fileID: 1451909041}
  m_RootOrder: 1
  m_LocalEulerAnglesHint: {x: 0, y: 0, z: 0}
  m_AnchorMin: {x: 0.5, y: 0.5}
  m_AnchorMax: {x: 0.5, y: 0.5}
  m_AnchoredPosition: {x: -4.3, y: -53.238}
  m_SizeDelta: {x: 1015.5, y: 661.53}
  m_Pivot: {x: 0.5, y: 0.5}
--- !u!114 &463830923
MonoBehaviour:
  m_ObjectHideFlags: 0
  m_CorrespondingSourceObject: {fileID: 0}
  m_PrefabInstance: {fileID: 0}
  m_PrefabAsset: {fileID: 0}
  m_GameObject: {fileID: 463830921}
  m_Enabled: 1
  m_EditorHideFlags: 0
  m_Script: {fileID: -765806418, guid: f70555f144d8491a825f0804e09c671c, type: 3}
  m_Name: 
  m_EditorClassIdentifier: 
  m_Material: {fileID: 0}
  m_Color: {r: 1, g: 1, b: 1, a: 1}
  m_RaycastTarget: 1
  m_OnCullStateChanged:
    m_PersistentCalls:
      m_Calls: []
    m_TypeName: UnityEngine.UI.MaskableGraphic+CullStateChangedEvent, UnityEngine.UI,
      Version=1.0.0.0, Culture=neutral, PublicKeyToken=null
  m_Sprite: {fileID: 21300000, guid: 0caf14f41c6e9431c8566081e8647631, type: 3}
  m_Type: 0
  m_PreserveAspect: 0
  m_FillCenter: 1
  m_FillMethod: 4
  m_FillAmount: 1
  m_FillClockwise: 1
  m_FillOrigin: 0
  m_UseSpriteMesh: 0
--- !u!222 &463830924
CanvasRenderer:
  m_ObjectHideFlags: 0
  m_CorrespondingSourceObject: {fileID: 0}
  m_PrefabInstance: {fileID: 0}
  m_PrefabAsset: {fileID: 0}
  m_GameObject: {fileID: 463830921}
  m_CullTransparentMesh: 0
--- !u!114 &463830925
MonoBehaviour:
  m_ObjectHideFlags: 0
  m_CorrespondingSourceObject: {fileID: 0}
  m_PrefabInstance: {fileID: 0}
  m_PrefabAsset: {fileID: 0}
  m_GameObject: {fileID: 463830921}
  m_Enabled: 1
  m_EditorHideFlags: 0
  m_Script: {fileID: 11500000, guid: 8a307b8b668564f1386db784ce957acc, type: 3}
  m_Name: 
  m_EditorClassIdentifier: 
  ama: 0
  ValueMax: 3
  SlideShow:
  - {fileID: 1604330842}
  - {fileID: 0}
  - {fileID: 0}
  - {fileID: 0}
  Next: {fileID: 1135518996}
  Previous: {fileID: 945988255}
--- !u!1001 &473291824
PrefabInstance:
  m_ObjectHideFlags: 0
  serializedVersion: 2
  m_Modification:
    m_TransformParent: {fileID: 1451909041}
    m_Modifications:
    - target: {fileID: 2699610764876163434, guid: 1dd26c21a99ca4dbebd506439f3557a0,
        type: 3}
      propertyPath: m_Name
      value: Button (1) Variant
      objectReference: {fileID: 0}
    - target: {fileID: 2699610764876163434, guid: 1dd26c21a99ca4dbebd506439f3557a0,
        type: 3}
      propertyPath: m_IsActive
      value: 0
      objectReference: {fileID: 0}
    - target: {fileID: 2699610764876163435, guid: 1dd26c21a99ca4dbebd506439f3557a0,
        type: 3}
      propertyPath: m_LocalPosition.x
      value: 0
      objectReference: {fileID: 0}
    - target: {fileID: 2699610764876163435, guid: 1dd26c21a99ca4dbebd506439f3557a0,
        type: 3}
      propertyPath: m_LocalPosition.y
      value: 0
      objectReference: {fileID: 0}
    - target: {fileID: 2699610764876163435, guid: 1dd26c21a99ca4dbebd506439f3557a0,
        type: 3}
      propertyPath: m_LocalPosition.z
      value: 0
      objectReference: {fileID: 0}
    - target: {fileID: 2699610764876163435, guid: 1dd26c21a99ca4dbebd506439f3557a0,
        type: 3}
      propertyPath: m_LocalRotation.x
      value: -0
      objectReference: {fileID: 0}
    - target: {fileID: 2699610764876163435, guid: 1dd26c21a99ca4dbebd506439f3557a0,
        type: 3}
      propertyPath: m_LocalRotation.y
      value: -0
      objectReference: {fileID: 0}
    - target: {fileID: 2699610764876163435, guid: 1dd26c21a99ca4dbebd506439f3557a0,
        type: 3}
      propertyPath: m_LocalRotation.z
      value: -0
      objectReference: {fileID: 0}
    - target: {fileID: 2699610764876163435, guid: 1dd26c21a99ca4dbebd506439f3557a0,
        type: 3}
      propertyPath: m_LocalRotation.w
      value: 1
      objectReference: {fileID: 0}
    - target: {fileID: 2699610764876163435, guid: 1dd26c21a99ca4dbebd506439f3557a0,
        type: 3}
      propertyPath: m_RootOrder
      value: 9
      objectReference: {fileID: 0}
    - target: {fileID: 2699610764876163435, guid: 1dd26c21a99ca4dbebd506439f3557a0,
        type: 3}
      propertyPath: m_LocalEulerAnglesHint.x
      value: 0
      objectReference: {fileID: 0}
    - target: {fileID: 2699610764876163435, guid: 1dd26c21a99ca4dbebd506439f3557a0,
        type: 3}
      propertyPath: m_LocalEulerAnglesHint.y
      value: 0
      objectReference: {fileID: 0}
    - target: {fileID: 2699610764876163435, guid: 1dd26c21a99ca4dbebd506439f3557a0,
        type: 3}
      propertyPath: m_LocalEulerAnglesHint.z
      value: 0
      objectReference: {fileID: 0}
    - target: {fileID: 2699610764876163435, guid: 1dd26c21a99ca4dbebd506439f3557a0,
        type: 3}
      propertyPath: m_AnchoredPosition.x
      value: 416.5
      objectReference: {fileID: 0}
    - target: {fileID: 2699610764876163435, guid: 1dd26c21a99ca4dbebd506439f3557a0,
        type: 3}
      propertyPath: m_AnchoredPosition.y
      value: 205.8
      objectReference: {fileID: 0}
    - target: {fileID: 2699610764876163435, guid: 1dd26c21a99ca4dbebd506439f3557a0,
        type: 3}
      propertyPath: m_SizeDelta.x
      value: 61.63
      objectReference: {fileID: 0}
    - target: {fileID: 2699610764876163435, guid: 1dd26c21a99ca4dbebd506439f3557a0,
        type: 3}
      propertyPath: m_SizeDelta.y
      value: 61.63
      objectReference: {fileID: 0}
    - target: {fileID: 2699610764876163435, guid: 1dd26c21a99ca4dbebd506439f3557a0,
        type: 3}
      propertyPath: m_AnchorMin.x
      value: 0.5
      objectReference: {fileID: 0}
    - target: {fileID: 2699610764876163435, guid: 1dd26c21a99ca4dbebd506439f3557a0,
        type: 3}
      propertyPath: m_AnchorMin.y
      value: 0.5
      objectReference: {fileID: 0}
    - target: {fileID: 2699610764876163435, guid: 1dd26c21a99ca4dbebd506439f3557a0,
        type: 3}
      propertyPath: m_AnchorMax.x
      value: 0.5
      objectReference: {fileID: 0}
    - target: {fileID: 2699610764876163435, guid: 1dd26c21a99ca4dbebd506439f3557a0,
        type: 3}
      propertyPath: m_AnchorMax.y
      value: 0.5
      objectReference: {fileID: 0}
    - target: {fileID: 2699610764876163435, guid: 1dd26c21a99ca4dbebd506439f3557a0,
        type: 3}
      propertyPath: m_Pivot.x
      value: 0.5
      objectReference: {fileID: 0}
    - target: {fileID: 2699610764876163435, guid: 1dd26c21a99ca4dbebd506439f3557a0,
        type: 3}
      propertyPath: m_Pivot.y
      value: 0.5
      objectReference: {fileID: 0}
    - target: {fileID: 798203901, guid: 1dd26c21a99ca4dbebd506439f3557a0, type: 3}
      propertyPath: m_audioClip
      value: 
      objectReference: {fileID: 8300000, guid: 12e551868abb042dbae9d24b2c0a3c7d, type: 3}
    m_RemovedComponents: []
  m_SourcePrefab: {fileID: 100100000, guid: 1dd26c21a99ca4dbebd506439f3557a0, type: 3}
--- !u!224 &473291825 stripped
RectTransform:
  m_CorrespondingSourceObject: {fileID: 2699610764876163435, guid: 1dd26c21a99ca4dbebd506439f3557a0,
    type: 3}
  m_PrefabInstance: {fileID: 473291824}
  m_PrefabAsset: {fileID: 0}
--- !u!1 &534669902
GameObject:
  m_ObjectHideFlags: 0
  m_CorrespondingSourceObject: {fileID: 0}
  m_PrefabInstance: {fileID: 0}
  m_PrefabAsset: {fileID: 0}
  serializedVersion: 6
  m_Component:
  - component: {fileID: 534669905}
  - component: {fileID: 534669904}
  - component: {fileID: 534669903}
  - component: {fileID: 534669906}
  m_Layer: 0
  m_Name: Main Camera
  m_TagString: MainCamera
  m_Icon: {fileID: 0}
  m_NavMeshLayer: 0
  m_StaticEditorFlags: 0
  m_IsActive: 1
--- !u!81 &534669903
AudioListener:
  m_ObjectHideFlags: 0
  m_CorrespondingSourceObject: {fileID: 0}
  m_PrefabInstance: {fileID: 0}
  m_PrefabAsset: {fileID: 0}
  m_GameObject: {fileID: 534669902}
  m_Enabled: 1
--- !u!20 &534669904
Camera:
  m_ObjectHideFlags: 0
  m_CorrespondingSourceObject: {fileID: 0}
  m_PrefabInstance: {fileID: 0}
  m_PrefabAsset: {fileID: 0}
  m_GameObject: {fileID: 534669902}
  m_Enabled: 1
  serializedVersion: 2
  m_ClearFlags: 1
  m_BackGroundColor: {r: 0.19215687, g: 0.3019608, b: 0.4745098, a: 0}
  m_projectionMatrixMode: 1
  m_SensorSize: {x: 36, y: 24}
  m_LensShift: {x: 0, y: 0}
  m_GateFitMode: 2
  m_FocalLength: 50
  m_NormalizedViewPortRect:
    serializedVersion: 2
    x: 0
    y: 0
    width: 1
    height: 1
  near clip plane: 0.3
  far clip plane: 1000
  field of view: 60
  orthographic: 0
  orthographic size: 5
  m_Depth: -1
  m_CullingMask:
    serializedVersion: 2
    m_Bits: 4294967295
  m_RenderingPath: -1
  m_TargetTexture: {fileID: 0}
  m_TargetDisplay: 0
  m_TargetEye: 3
  m_HDR: 1
  m_AllowMSAA: 1
  m_AllowDynamicResolution: 0
  m_ForceIntoRT: 0
  m_OcclusionCulling: 1
  m_StereoConvergence: 10
  m_StereoSeparation: 0.022
--- !u!4 &534669905
Transform:
  m_ObjectHideFlags: 0
  m_CorrespondingSourceObject: {fileID: 0}
  m_PrefabInstance: {fileID: 0}
  m_PrefabAsset: {fileID: 0}
  m_GameObject: {fileID: 534669902}
  m_LocalRotation: {x: 0, y: 0, z: 0, w: 1}
  m_LocalPosition: {x: 0, y: 1, z: -10}
  m_LocalScale: {x: 1, y: 1, z: 1}
  m_Children: []
  m_Father: {fileID: 0}
  m_RootOrder: 0
  m_LocalEulerAnglesHint: {x: 0, y: 0, z: 0}
--- !u!114 &534669906
MonoBehaviour:
  m_ObjectHideFlags: 0
  m_CorrespondingSourceObject: {fileID: 0}
  m_PrefabInstance: {fileID: 0}
  m_PrefabAsset: {fileID: 0}
  m_GameObject: {fileID: 534669902}
  m_Enabled: 1
  m_EditorHideFlags: 0
  m_Script: {fileID: 11500000, guid: 3c840898cbe0a421ab2c4e810c9068a4, type: 3}
  m_Name: 
  m_EditorClassIdentifier: 
  Black: {fileID: 1868245495}
  SceneSplash: 0
  scene: 2
--- !u!1 &802173348
GameObject:
  m_ObjectHideFlags: 0
  m_CorrespondingSourceObject: {fileID: 0}
  m_PrefabInstance: {fileID: 0}
  m_PrefabAsset: {fileID: 0}
  serializedVersion: 6
  m_Component:
  - component: {fileID: 802173352}
  - component: {fileID: 802173351}
  - component: {fileID: 802173350}
  - component: {fileID: 802173349}
  m_Layer: 5
  m_Name: Canvas
  m_TagString: Untagged
  m_Icon: {fileID: 0}
  m_NavMeshLayer: 0
  m_StaticEditorFlags: 0
  m_IsActive: 1
--- !u!114 &802173349
MonoBehaviour:
  m_ObjectHideFlags: 0
  m_CorrespondingSourceObject: {fileID: 0}
  m_PrefabInstance: {fileID: 0}
  m_PrefabAsset: {fileID: 0}
  m_GameObject: {fileID: 802173348}
  m_Enabled: 1
  m_EditorHideFlags: 0
  m_Script: {fileID: 1301386320, guid: f70555f144d8491a825f0804e09c671c, type: 3}
  m_Name: 
  m_EditorClassIdentifier: 
  m_IgnoreReversedGraphics: 1
  m_BlockingObjects: 0
  m_BlockingMask:
    serializedVersion: 2
    m_Bits: 4294967295
--- !u!114 &802173350
MonoBehaviour:
  m_ObjectHideFlags: 0
  m_CorrespondingSourceObject: {fileID: 0}
  m_PrefabInstance: {fileID: 0}
  m_PrefabAsset: {fileID: 0}
  m_GameObject: {fileID: 802173348}
  m_Enabled: 1
  m_EditorHideFlags: 0
  m_Script: {fileID: 1980459831, guid: f70555f144d8491a825f0804e09c671c, type: 3}
  m_Name: 
  m_EditorClassIdentifier: 
  m_UiScaleMode: 1
  m_ReferencePixelsPerUnit: 100
  m_ScaleFactor: 1
  m_ReferenceResolution: {x: 1024, y: 768}
  m_ScreenMatchMode: 0
  m_MatchWidthOrHeight: 0
  m_PhysicalUnit: 3
  m_FallbackScreenDPI: 96
  m_DefaultSpriteDPI: 96
  m_DynamicPixelsPerUnit: 1
--- !u!223 &802173351
Canvas:
  m_ObjectHideFlags: 0
  m_CorrespondingSourceObject: {fileID: 0}
  m_PrefabInstance: {fileID: 0}
  m_PrefabAsset: {fileID: 0}
  m_GameObject: {fileID: 802173348}
  m_Enabled: 1
  serializedVersion: 3
  m_RenderMode: 1
  m_Camera: {fileID: 534669904}
  m_PlaneDistance: 97.09
  m_PixelPerfect: 0
  m_ReceivesEvents: 1
  m_OverrideSorting: 0
  m_OverridePixelPerfect: 0
  m_SortingBucketNormalizedSize: 0
  m_AdditionalShaderChannelsFlag: 25
  m_SortingLayerID: 0
  m_SortingOrder: -105
  m_TargetDisplay: 0
--- !u!224 &802173352
RectTransform:
  m_ObjectHideFlags: 0
  m_CorrespondingSourceObject: {fileID: 0}
  m_PrefabInstance: {fileID: 0}
  m_PrefabAsset: {fileID: 0}
  m_GameObject: {fileID: 802173348}
  m_LocalRotation: {x: 0, y: 0, z: 0, w: 1}
  m_LocalPosition: {x: 0, y: 0, z: 0}
  m_LocalScale: {x: 0, y: 0, z: 0}
  m_Children:
  - {fileID: 1451909041}
  - {fileID: 1269902505}
  m_Father: {fileID: 0}
  m_RootOrder: 1
  m_LocalEulerAnglesHint: {x: 0, y: 0, z: 0}
  m_AnchorMin: {x: 0, y: 0}
  m_AnchorMax: {x: 0, y: 0}
  m_AnchoredPosition: {x: 0, y: 0}
  m_SizeDelta: {x: 0, y: 0}
  m_Pivot: {x: 0, y: 0}
--- !u!1001 &903295295
PrefabInstance:
  m_ObjectHideFlags: 0
  serializedVersion: 2
  m_Modification:
    m_TransformParent: {fileID: 463830922}
    m_Modifications:
    - target: {fileID: 8010693595842944616, guid: 5caebc5cf49534642b2792bf11249d93,
        type: 3}
      propertyPath: m_Name
      value: Previous
      objectReference: {fileID: 0}
    - target: {fileID: 8010693595842944616, guid: 5caebc5cf49534642b2792bf11249d93,
        type: 3}
      propertyPath: m_IsActive
      value: 0
      objectReference: {fileID: 0}
    - target: {fileID: 8010693595842944619, guid: 5caebc5cf49534642b2792bf11249d93,
        type: 3}
      propertyPath: m_LocalPosition.x
      value: 0
      objectReference: {fileID: 0}
    - target: {fileID: 8010693595842944619, guid: 5caebc5cf49534642b2792bf11249d93,
        type: 3}
      propertyPath: m_LocalPosition.y
      value: 0
      objectReference: {fileID: 0}
    - target: {fileID: 8010693595842944619, guid: 5caebc5cf49534642b2792bf11249d93,
        type: 3}
      propertyPath: m_LocalPosition.z
      value: 0
      objectReference: {fileID: 0}
    - target: {fileID: 8010693595842944619, guid: 5caebc5cf49534642b2792bf11249d93,
        type: 3}
      propertyPath: m_LocalRotation.x
      value: 0
      objectReference: {fileID: 0}
    - target: {fileID: 8010693595842944619, guid: 5caebc5cf49534642b2792bf11249d93,
        type: 3}
      propertyPath: m_LocalRotation.y
      value: 0
      objectReference: {fileID: 0}
    - target: {fileID: 8010693595842944619, guid: 5caebc5cf49534642b2792bf11249d93,
        type: 3}
      propertyPath: m_LocalRotation.z
      value: 0
      objectReference: {fileID: 0}
    - target: {fileID: 8010693595842944619, guid: 5caebc5cf49534642b2792bf11249d93,
        type: 3}
      propertyPath: m_LocalRotation.w
      value: 1
      objectReference: {fileID: 0}
    - target: {fileID: 8010693595842944619, guid: 5caebc5cf49534642b2792bf11249d93,
        type: 3}
      propertyPath: m_RootOrder
      value: 2
      objectReference: {fileID: 0}
    - target: {fileID: 8010693595842944619, guid: 5caebc5cf49534642b2792bf11249d93,
        type: 3}
      propertyPath: m_LocalEulerAnglesHint.x
      value: 0
      objectReference: {fileID: 0}
    - target: {fileID: 8010693595842944619, guid: 5caebc5cf49534642b2792bf11249d93,
        type: 3}
      propertyPath: m_LocalEulerAnglesHint.y
      value: 0
      objectReference: {fileID: 0}
    - target: {fileID: 8010693595842944619, guid: 5caebc5cf49534642b2792bf11249d93,
        type: 3}
      propertyPath: m_LocalEulerAnglesHint.z
      value: 0
      objectReference: {fileID: 0}
    - target: {fileID: 8010693595842944619, guid: 5caebc5cf49534642b2792bf11249d93,
        type: 3}
      propertyPath: m_AnchoredPosition.x
      value: -221.3
      objectReference: {fileID: 0}
    - target: {fileID: 8010693595842944619, guid: 5caebc5cf49534642b2792bf11249d93,
        type: 3}
      propertyPath: m_AnchoredPosition.y
      value: -261
      objectReference: {fileID: 0}
    - target: {fileID: 8010693595842944619, guid: 5caebc5cf49534642b2792bf11249d93,
        type: 3}
      propertyPath: m_SizeDelta.x
      value: 79.8
      objectReference: {fileID: 0}
    - target: {fileID: 8010693595842944619, guid: 5caebc5cf49534642b2792bf11249d93,
        type: 3}
      propertyPath: m_SizeDelta.y
      value: 76.2
      objectReference: {fileID: 0}
    - target: {fileID: 8010693595842944619, guid: 5caebc5cf49534642b2792bf11249d93,
        type: 3}
      propertyPath: m_AnchorMin.x
      value: 0.5
      objectReference: {fileID: 0}
    - target: {fileID: 8010693595842944619, guid: 5caebc5cf49534642b2792bf11249d93,
        type: 3}
      propertyPath: m_AnchorMin.y
      value: 0.5
      objectReference: {fileID: 0}
    - target: {fileID: 8010693595842944619, guid: 5caebc5cf49534642b2792bf11249d93,
        type: 3}
      propertyPath: m_AnchorMax.x
      value: 0.5
      objectReference: {fileID: 0}
    - target: {fileID: 8010693595842944619, guid: 5caebc5cf49534642b2792bf11249d93,
        type: 3}
      propertyPath: m_AnchorMax.y
      value: 0.5
      objectReference: {fileID: 0}
    - target: {fileID: 8010693595842944619, guid: 5caebc5cf49534642b2792bf11249d93,
        type: 3}
      propertyPath: m_Pivot.x
      value: 0.5
      objectReference: {fileID: 0}
    - target: {fileID: 8010693595842944619, guid: 5caebc5cf49534642b2792bf11249d93,
        type: 3}
      propertyPath: m_Pivot.y
      value: 0.5
      objectReference: {fileID: 0}
    - target: {fileID: 8010693595842944623, guid: 5caebc5cf49534642b2792bf11249d93,
        type: 3}
      propertyPath: Target
      value: 
      objectReference: {fileID: 0}
    - target: {fileID: 8010693595842944623, guid: 5caebc5cf49534642b2792bf11249d93,
        type: 3}
      propertyPath: Value
      value: 1
      objectReference: {fileID: 0}
    - target: {fileID: 8010693595842944618, guid: 5caebc5cf49534642b2792bf11249d93,
        type: 3}
      propertyPath: m_OnClick.m_PersistentCalls.m_Calls.Array.data[0].m_Target
      value: 
      objectReference: {fileID: 463830925}
    - target: {fileID: 8010693595842944618, guid: 5caebc5cf49534642b2792bf11249d93,
        type: 3}
      propertyPath: m_OnClick.m_PersistentCalls.m_Calls.Array.data[0].m_MethodName
      value: Decrement
      objectReference: {fileID: 0}
    m_RemovedComponents: []
  m_SourcePrefab: {fileID: 100100000, guid: 5caebc5cf49534642b2792bf11249d93, type: 3}
--- !u!224 &903295296 stripped
RectTransform:
  m_CorrespondingSourceObject: {fileID: 8010693595842944619, guid: 5caebc5cf49534642b2792bf11249d93,
    type: 3}
  m_PrefabInstance: {fileID: 903295295}
  m_PrefabAsset: {fileID: 0}
--- !u!114 &945988255 stripped
MonoBehaviour:
  m_CorrespondingSourceObject: {fileID: 8010693595842944618, guid: 5caebc5cf49534642b2792bf11249d93,
    type: 3}
  m_PrefabInstance: {fileID: 903295295}
  m_PrefabAsset: {fileID: 0}
  m_GameObject: {fileID: 0}
  m_Enabled: 1
  m_EditorHideFlags: 0
  m_Script: {fileID: 1392445389, guid: f70555f144d8491a825f0804e09c671c, type: 3}
  m_Name: 
  m_EditorClassIdentifier: 
--- !u!1001 &990730520
PrefabInstance:
  m_ObjectHideFlags: 0
  serializedVersion: 2
  m_Modification:
    m_TransformParent: {fileID: 1451909041}
    m_Modifications:
    - target: {fileID: 4085838495108897956, guid: 11b91ba37c91a4a999af8faf7dd92725,
        type: 3}
      propertyPath: m_Name
      value: Audio Variant
      objectReference: {fileID: 0}
    - target: {fileID: 4085838495108897956, guid: 11b91ba37c91a4a999af8faf7dd92725,
        type: 3}
      propertyPath: m_IsActive
      value: 0
      objectReference: {fileID: 0}
    - target: {fileID: 4085838495108897957, guid: 11b91ba37c91a4a999af8faf7dd92725,
        type: 3}
      propertyPath: m_LocalPosition.x
      value: 0
      objectReference: {fileID: 0}
    - target: {fileID: 4085838495108897957, guid: 11b91ba37c91a4a999af8faf7dd92725,
        type: 3}
      propertyPath: m_LocalPosition.y
      value: 0
      objectReference: {fileID: 0}
    - target: {fileID: 4085838495108897957, guid: 11b91ba37c91a4a999af8faf7dd92725,
        type: 3}
      propertyPath: m_LocalPosition.z
      value: 0
      objectReference: {fileID: 0}
    - target: {fileID: 4085838495108897957, guid: 11b91ba37c91a4a999af8faf7dd92725,
        type: 3}
      propertyPath: m_LocalRotation.x
      value: -0
      objectReference: {fileID: 0}
    - target: {fileID: 4085838495108897957, guid: 11b91ba37c91a4a999af8faf7dd92725,
        type: 3}
      propertyPath: m_LocalRotation.y
      value: -0
      objectReference: {fileID: 0}
    - target: {fileID: 4085838495108897957, guid: 11b91ba37c91a4a999af8faf7dd92725,
        type: 3}
      propertyPath: m_LocalRotation.z
      value: -0
      objectReference: {fileID: 0}
    - target: {fileID: 4085838495108897957, guid: 11b91ba37c91a4a999af8faf7dd92725,
        type: 3}
      propertyPath: m_LocalRotation.w
      value: 1
      objectReference: {fileID: 0}
    - target: {fileID: 4085838495108897957, guid: 11b91ba37c91a4a999af8faf7dd92725,
        type: 3}
      propertyPath: m_RootOrder
      value: 8
      objectReference: {fileID: 0}
    - target: {fileID: 4085838495108897957, guid: 11b91ba37c91a4a999af8faf7dd92725,
        type: 3}
      propertyPath: m_LocalEulerAnglesHint.x
      value: 0
      objectReference: {fileID: 0}
    - target: {fileID: 4085838495108897957, guid: 11b91ba37c91a4a999af8faf7dd92725,
        type: 3}
      propertyPath: m_LocalEulerAnglesHint.y
      value: 0
      objectReference: {fileID: 0}
    - target: {fileID: 4085838495108897957, guid: 11b91ba37c91a4a999af8faf7dd92725,
        type: 3}
      propertyPath: m_LocalEulerAnglesHint.z
      value: 0
      objectReference: {fileID: 0}
    - target: {fileID: 4085838495108897957, guid: 11b91ba37c91a4a999af8faf7dd92725,
        type: 3}
      propertyPath: m_AnchoredPosition.x
      value: -9
      objectReference: {fileID: 0}
    - target: {fileID: 4085838495108897957, guid: 11b91ba37c91a4a999af8faf7dd92725,
        type: 3}
      propertyPath: m_AnchoredPosition.y
      value: -9
      objectReference: {fileID: 0}
    - target: {fileID: 4085838495108897957, guid: 11b91ba37c91a4a999af8faf7dd92725,
        type: 3}
      propertyPath: m_SizeDelta.x
      value: 100
      objectReference: {fileID: 0}
    - target: {fileID: 4085838495108897957, guid: 11b91ba37c91a4a999af8faf7dd92725,
        type: 3}
      propertyPath: m_SizeDelta.y
      value: 100
      objectReference: {fileID: 0}
    - target: {fileID: 4085838495108897957, guid: 11b91ba37c91a4a999af8faf7dd92725,
        type: 3}
      propertyPath: m_AnchorMin.x
      value: 0.5
      objectReference: {fileID: 0}
    - target: {fileID: 4085838495108897957, guid: 11b91ba37c91a4a999af8faf7dd92725,
        type: 3}
      propertyPath: m_AnchorMin.y
      value: 0.5
      objectReference: {fileID: 0}
    - target: {fileID: 4085838495108897957, guid: 11b91ba37c91a4a999af8faf7dd92725,
        type: 3}
      propertyPath: m_AnchorMax.x
      value: 0.5
      objectReference: {fileID: 0}
    - target: {fileID: 4085838495108897957, guid: 11b91ba37c91a4a999af8faf7dd92725,
        type: 3}
      propertyPath: m_AnchorMax.y
      value: 0.5
      objectReference: {fileID: 0}
    - target: {fileID: 4085838495108897957, guid: 11b91ba37c91a4a999af8faf7dd92725,
        type: 3}
      propertyPath: m_Pivot.x
      value: 0.5
      objectReference: {fileID: 0}
    - target: {fileID: 4085838495108897957, guid: 11b91ba37c91a4a999af8faf7dd92725,
        type: 3}
      propertyPath: m_Pivot.y
      value: 0.5
      objectReference: {fileID: 0}
    - target: {fileID: 4085838495793379349, guid: 11b91ba37c91a4a999af8faf7dd92725,
        type: 3}
      propertyPath: m_audioClip
      value: 
      objectReference: {fileID: 8300000, guid: 12e551868abb042dbae9d24b2c0a3c7d, type: 3}
    m_RemovedComponents: []
  m_SourcePrefab: {fileID: 100100000, guid: 11b91ba37c91a4a999af8faf7dd92725, type: 3}
--- !u!224 &990730521 stripped
RectTransform:
  m_CorrespondingSourceObject: {fileID: 4085838495108897957, guid: 11b91ba37c91a4a999af8faf7dd92725,
    type: 3}
  m_PrefabInstance: {fileID: 990730520}
  m_PrefabAsset: {fileID: 0}
--- !u!1 &1032889173
GameObject:
  m_ObjectHideFlags: 0
  m_CorrespondingSourceObject: {fileID: 0}
  m_PrefabInstance: {fileID: 0}
  m_PrefabAsset: {fileID: 0}
  serializedVersion: 6
  m_Component:
  - component: {fileID: 1032889174}
  - component: {fileID: 1032889176}
  - component: {fileID: 1032889175}
  m_Layer: 5
  m_Name: BG (2)
  m_TagString: Untagged
  m_Icon: {fileID: 0}
  m_NavMeshLayer: 0
  m_StaticEditorFlags: 0
  m_IsActive: 0
--- !u!224 &1032889174
RectTransform:
  m_ObjectHideFlags: 0
  m_CorrespondingSourceObject: {fileID: 0}
  m_PrefabInstance: {fileID: 0}
  m_PrefabAsset: {fileID: 0}
  m_GameObject: {fileID: 1032889173}
  m_LocalRotation: {x: -0, y: -0, z: -0, w: 1}
  m_LocalPosition: {x: 0, y: 0, z: 0}
  m_LocalScale: {x: 1, y: 1, z: 1}
  m_Children: []
  m_Father: {fileID: 1451909041}
  m_RootOrder: 3
  m_LocalEulerAnglesHint: {x: 0, y: 0, z: 0}
  m_AnchorMin: {x: 0.5, y: 0.5}
  m_AnchorMax: {x: 0.5, y: 0.5}
  m_AnchoredPosition: {x: 0, y: 0}
  m_SizeDelta: {x: 1024, y: 768}
  m_Pivot: {x: 0.5, y: 0.5}
--- !u!114 &1032889175
MonoBehaviour:
  m_ObjectHideFlags: 0
  m_CorrespondingSourceObject: {fileID: 0}
  m_PrefabInstance: {fileID: 0}
  m_PrefabAsset: {fileID: 0}
  m_GameObject: {fileID: 1032889173}
  m_Enabled: 1
  m_EditorHideFlags: 0
  m_Script: {fileID: -765806418, guid: f70555f144d8491a825f0804e09c671c, type: 3}
  m_Name: 
  m_EditorClassIdentifier: 
  m_Material: {fileID: 0}
  m_Color: {r: 1, g: 1, b: 1, a: 0.4627451}
  m_RaycastTarget: 1
  m_OnCullStateChanged:
    m_PersistentCalls:
      m_Calls: []
    m_TypeName: UnityEngine.UI.MaskableGraphic+CullStateChangedEvent, UnityEngine.UI,
      Version=1.0.0.0, Culture=neutral, PublicKeyToken=null
  m_Sprite: {fileID: 21300000, guid: 251ef0537e85542b2934d5f7e78367e8, type: 3}
  m_Type: 0
  m_PreserveAspect: 0
  m_FillCenter: 1
  m_FillMethod: 4
  m_FillAmount: 1
  m_FillClockwise: 1
  m_FillOrigin: 0
  m_UseSpriteMesh: 0
--- !u!222 &1032889176
CanvasRenderer:
  m_ObjectHideFlags: 0
  m_CorrespondingSourceObject: {fileID: 0}
  m_PrefabInstance: {fileID: 0}
  m_PrefabAsset: {fileID: 0}
  m_GameObject: {fileID: 1032889173}
  m_CullTransparentMesh: 0
--- !u!114 &1135518996 stripped
MonoBehaviour:
  m_CorrespondingSourceObject: {fileID: 23468382841581714, guid: a1dc168faef354bef851e69410fa0045,
    type: 3}
  m_PrefabInstance: {fileID: 1771798039}
  m_PrefabAsset: {fileID: 0}
  m_GameObject: {fileID: 0}
  m_Enabled: 1
  m_EditorHideFlags: 0
  m_Script: {fileID: 1392445389, guid: f70555f144d8491a825f0804e09c671c, type: 3}
  m_Name: 
  m_EditorClassIdentifier: 
--- !u!1 &1218989231
GameObject:
  m_ObjectHideFlags: 0
  m_CorrespondingSourceObject: {fileID: 0}
  m_PrefabInstance: {fileID: 0}
  m_PrefabAsset: {fileID: 0}
  serializedVersion: 6
  m_Component:
  - component: {fileID: 1218989232}
  - component: {fileID: 1218989234}
  - component: {fileID: 1218989233}
  m_Layer: 5
  m_Name: Image
  m_TagString: Untagged
  m_Icon: {fileID: 0}
  m_NavMeshLayer: 0
  m_StaticEditorFlags: 0
  m_IsActive: 0
--- !u!224 &1218989232
RectTransform:
  m_ObjectHideFlags: 0
  m_CorrespondingSourceObject: {fileID: 0}
  m_PrefabInstance: {fileID: 0}
  m_PrefabAsset: {fileID: 0}
  m_GameObject: {fileID: 1218989231}
  m_LocalRotation: {x: -0, y: -0, z: -0, w: 1}
  m_LocalPosition: {x: 0, y: 0, z: 0}
  m_LocalScale: {x: 1, y: 1, z: 1}
  m_Children: []
  m_Father: {fileID: 1451909041}
  m_RootOrder: 5
  m_LocalEulerAnglesHint: {x: 0, y: 0, z: 0}
  m_AnchorMin: {x: 0.5, y: 0.5}
  m_AnchorMax: {x: 0.5, y: 0.5}
  m_AnchoredPosition: {x: -4.299988, y: -53.238007}
  m_SizeDelta: {x: 1015.5, y: 661.53}
  m_Pivot: {x: 0.5, y: 0.5}
--- !u!114 &1218989233
MonoBehaviour:
  m_ObjectHideFlags: 0
  m_CorrespondingSourceObject: {fileID: 0}
  m_PrefabInstance: {fileID: 0}
  m_PrefabAsset: {fileID: 0}
  m_GameObject: {fileID: 1218989231}
  m_Enabled: 1
  m_EditorHideFlags: 0
  m_Script: {fileID: -765806418, guid: f70555f144d8491a825f0804e09c671c, type: 3}
  m_Name: 
  m_EditorClassIdentifier: 
  m_Material: {fileID: 0}
  m_Color: {r: 1, g: 1, b: 1, a: 1}
  m_RaycastTarget: 1
  m_OnCullStateChanged:
    m_PersistentCalls:
      m_Calls: []
    m_TypeName: UnityEngine.UI.MaskableGraphic+CullStateChangedEvent, UnityEngine.UI,
      Version=1.0.0.0, Culture=neutral, PublicKeyToken=null
  m_Sprite: {fileID: 21300000, guid: 0caf14f41c6e9431c8566081e8647631, type: 3}
  m_Type: 0
  m_PreserveAspect: 0
  m_FillCenter: 1
  m_FillMethod: 4
  m_FillAmount: 1
  m_FillClockwise: 1
  m_FillOrigin: 0
  m_UseSpriteMesh: 0
--- !u!222 &1218989234
CanvasRenderer:
  m_ObjectHideFlags: 0
  m_CorrespondingSourceObject: {fileID: 0}
  m_PrefabInstance: {fileID: 0}
  m_PrefabAsset: {fileID: 0}
  m_GameObject: {fileID: 1218989231}
  m_CullTransparentMesh: 0
--- !u!1001 &1269902504
PrefabInstance:
  m_ObjectHideFlags: 0
  serializedVersion: 2
  m_Modification:
    m_TransformParent: {fileID: 802173352}
    m_Modifications:
    - target: {fileID: 1983319162223251523, guid: f3b20a0c8c17a4f2cac0248b2e0fae4d,
        type: 3}
      propertyPath: m_Name
      value: TextMeshPro Text
      objectReference: {fileID: 0}
    - target: {fileID: 1002135966048402509, guid: f3b20a0c8c17a4f2cac0248b2e0fae4d,
        type: 3}
      propertyPath: m_LocalPosition.x
      value: 0
      objectReference: {fileID: 0}
    - target: {fileID: 1002135966048402509, guid: f3b20a0c8c17a4f2cac0248b2e0fae4d,
        type: 3}
      propertyPath: m_LocalPosition.y
      value: 0
      objectReference: {fileID: 0}
    - target: {fileID: 1002135966048402509, guid: f3b20a0c8c17a4f2cac0248b2e0fae4d,
        type: 3}
      propertyPath: m_LocalPosition.z
      value: 0
      objectReference: {fileID: 0}
    - target: {fileID: 1002135966048402509, guid: f3b20a0c8c17a4f2cac0248b2e0fae4d,
        type: 3}
      propertyPath: m_LocalRotation.x
      value: 0
      objectReference: {fileID: 0}
    - target: {fileID: 1002135966048402509, guid: f3b20a0c8c17a4f2cac0248b2e0fae4d,
        type: 3}
      propertyPath: m_LocalRotation.y
      value: 0
      objectReference: {fileID: 0}
    - target: {fileID: 1002135966048402509, guid: f3b20a0c8c17a4f2cac0248b2e0fae4d,
        type: 3}
      propertyPath: m_LocalRotation.z
      value: 0
      objectReference: {fileID: 0}
    - target: {fileID: 1002135966048402509, guid: f3b20a0c8c17a4f2cac0248b2e0fae4d,
        type: 3}
      propertyPath: m_LocalRotation.w
      value: 1
      objectReference: {fileID: 0}
    - target: {fileID: 1002135966048402509, guid: f3b20a0c8c17a4f2cac0248b2e0fae4d,
        type: 3}
      propertyPath: m_RootOrder
      value: 1
      objectReference: {fileID: 0}
    - target: {fileID: 1002135966048402509, guid: f3b20a0c8c17a4f2cac0248b2e0fae4d,
        type: 3}
      propertyPath: m_LocalEulerAnglesHint.x
      value: 0
      objectReference: {fileID: 0}
    - target: {fileID: 1002135966048402509, guid: f3b20a0c8c17a4f2cac0248b2e0fae4d,
        type: 3}
      propertyPath: m_LocalEulerAnglesHint.y
      value: 0
      objectReference: {fileID: 0}
    - target: {fileID: 1002135966048402509, guid: f3b20a0c8c17a4f2cac0248b2e0fae4d,
        type: 3}
      propertyPath: m_LocalEulerAnglesHint.z
      value: 0
      objectReference: {fileID: 0}
    - target: {fileID: 1002135966048402509, guid: f3b20a0c8c17a4f2cac0248b2e0fae4d,
        type: 3}
      propertyPath: m_AnchoredPosition.x
      value: -272
      objectReference: {fileID: 0}
    - target: {fileID: 1002135966048402509, guid: f3b20a0c8c17a4f2cac0248b2e0fae4d,
        type: 3}
      propertyPath: m_AnchoredPosition.y
      value: 318.1
      objectReference: {fileID: 0}
    - target: {fileID: 1002135966048402509, guid: f3b20a0c8c17a4f2cac0248b2e0fae4d,
        type: 3}
      propertyPath: m_SizeDelta.x
      value: 200
      objectReference: {fileID: 0}
    - target: {fileID: 1002135966048402509, guid: f3b20a0c8c17a4f2cac0248b2e0fae4d,
        type: 3}
      propertyPath: m_SizeDelta.y
      value: 50
      objectReference: {fileID: 0}
    - target: {fileID: 1002135966048402509, guid: f3b20a0c8c17a4f2cac0248b2e0fae4d,
        type: 3}
      propertyPath: m_AnchorMin.x
      value: 0.5
      objectReference: {fileID: 0}
    - target: {fileID: 1002135966048402509, guid: f3b20a0c8c17a4f2cac0248b2e0fae4d,
        type: 3}
      propertyPath: m_AnchorMin.y
      value: 0.5
      objectReference: {fileID: 0}
    - target: {fileID: 1002135966048402509, guid: f3b20a0c8c17a4f2cac0248b2e0fae4d,
        type: 3}
      propertyPath: m_AnchorMax.x
      value: 0.5
      objectReference: {fileID: 0}
    - target: {fileID: 1002135966048402509, guid: f3b20a0c8c17a4f2cac0248b2e0fae4d,
        type: 3}
      propertyPath: m_AnchorMax.y
      value: 0.5
      objectReference: {fileID: 0}
    - target: {fileID: 1002135966048402509, guid: f3b20a0c8c17a4f2cac0248b2e0fae4d,
        type: 3}
      propertyPath: m_Pivot.x
      value: 0.5
      objectReference: {fileID: 0}
    - target: {fileID: 1002135966048402509, guid: f3b20a0c8c17a4f2cac0248b2e0fae4d,
        type: 3}
      propertyPath: m_Pivot.y
      value: 0.5
      objectReference: {fileID: 0}
    m_RemovedComponents: []
  m_SourcePrefab: {fileID: 100100000, guid: f3b20a0c8c17a4f2cac0248b2e0fae4d, type: 3}
--- !u!224 &1269902505 stripped
RectTransform:
  m_CorrespondingSourceObject: {fileID: 1002135966048402509, guid: f3b20a0c8c17a4f2cac0248b2e0fae4d,
    type: 3}
  m_PrefabInstance: {fileID: 1269902504}
  m_PrefabAsset: {fileID: 0}
--- !u!1 &1305888533
GameObject:
  m_ObjectHideFlags: 0
  m_CorrespondingSourceObject: {fileID: 0}
  m_PrefabInstance: {fileID: 0}
  m_PrefabAsset: {fileID: 0}
  serializedVersion: 6
  m_Component:
  - component: {fileID: 1305888534}
  - component: {fileID: 1305888536}
  - component: {fileID: 1305888535}
  m_Layer: 5
  m_Name: Logo (1)
  m_TagString: Untagged
  m_Icon: {fileID: 0}
  m_NavMeshLayer: 0
  m_StaticEditorFlags: 0
  m_IsActive: 1
--- !u!224 &1305888534
RectTransform:
  m_ObjectHideFlags: 0
  m_CorrespondingSourceObject: {fileID: 0}
  m_PrefabInstance: {fileID: 0}
  m_PrefabAsset: {fileID: 0}
  m_GameObject: {fileID: 1305888533}
  m_LocalRotation: {x: -0, y: -0, z: -0, w: 1}
  m_LocalPosition: {x: 0, y: 0, z: 0}
  m_LocalScale: {x: 1, y: 1, z: 1}
  m_Children: []
  m_Father: {fileID: 1451909041}
  m_RootOrder: 6
  m_LocalEulerAnglesHint: {x: 0, y: 0, z: 0}
  m_AnchorMin: {x: 0.5, y: 0.5}
  m_AnchorMax: {x: 0.5, y: 0.5}
  m_AnchoredPosition: {x: 371.2, y: 321.14}
  m_SizeDelta: {x: 190.2, y: 87.228}
  m_Pivot: {x: 0.5, y: 0.5}
--- !u!114 &1305888535
MonoBehaviour:
  m_ObjectHideFlags: 0
  m_CorrespondingSourceObject: {fileID: 0}
  m_PrefabInstance: {fileID: 0}
  m_PrefabAsset: {fileID: 0}
  m_GameObject: {fileID: 1305888533}
  m_Enabled: 1
  m_EditorHideFlags: 0
  m_Script: {fileID: -765806418, guid: f70555f144d8491a825f0804e09c671c, type: 3}
  m_Name: 
  m_EditorClassIdentifier: 
  m_Material: {fileID: 0}
  m_Color: {r: 1, g: 1, b: 1, a: 1}
  m_RaycastTarget: 1
  m_OnCullStateChanged:
    m_PersistentCalls:
      m_Calls: []
    m_TypeName: UnityEngine.UI.MaskableGraphic+CullStateChangedEvent, UnityEngine.UI,
      Version=1.0.0.0, Culture=neutral, PublicKeyToken=null
  m_Sprite: {fileID: 21300000, guid: b09015a5f4d024662b558a3e13df108b, type: 3}
  m_Type: 0
  m_PreserveAspect: 0
  m_FillCenter: 1
  m_FillMethod: 4
  m_FillAmount: 1
  m_FillClockwise: 1
  m_FillOrigin: 0
  m_UseSpriteMesh: 0
--- !u!222 &1305888536
CanvasRenderer:
  m_ObjectHideFlags: 0
  m_CorrespondingSourceObject: {fileID: 0}
  m_PrefabInstance: {fileID: 0}
  m_PrefabAsset: {fileID: 0}
  m_GameObject: {fileID: 1305888533}
  m_CullTransparentMesh: 0
--- !u!1 &1451909040
GameObject:
  m_ObjectHideFlags: 0
  m_CorrespondingSourceObject: {fileID: 0}
  m_PrefabInstance: {fileID: 0}
  m_PrefabAsset: {fileID: 0}
  serializedVersion: 6
  m_Component:
  - component: {fileID: 1451909041}
  m_Layer: 5
  m_Name: Sejarah
  m_TagString: Untagged
  m_Icon: {fileID: 0}
  m_NavMeshLayer: 0
  m_StaticEditorFlags: 0
  m_IsActive: 1
--- !u!224 &1451909041
RectTransform:
  m_ObjectHideFlags: 0
  m_CorrespondingSourceObject: {fileID: 0}
  m_PrefabInstance: {fileID: 0}
  m_PrefabAsset: {fileID: 0}
  m_GameObject: {fileID: 1451909040}
  m_LocalRotation: {x: 0, y: 0, z: 0, w: 1}
  m_LocalPosition: {x: 0, y: 0, z: 0}
  m_LocalScale: {x: 1, y: 1, z: 1}
  m_Children:
  - {fileID: 2018269914}
  - {fileID: 463830922}
  - {fileID: 1868245492}
  - {fileID: 1032889174}
  - {fileID: 302420580}
  - {fileID: 1218989232}
  - {fileID: 1305888534}
  - {fileID: 1561174862}
  - {fileID: 990730521}
  - {fileID: 473291825}
  m_Father: {fileID: 802173352}
  m_RootOrder: 0
  m_LocalEulerAnglesHint: {x: 0, y: 0, z: 0}
  m_AnchorMin: {x: 0.5, y: 0.5}
  m_AnchorMax: {x: 0.5, y: 0.5}
  m_AnchoredPosition: {x: 0, y: 0}
  m_SizeDelta: {x: 100, y: 100}
  m_Pivot: {x: 0.5, y: 0.5}
--- !u!1001 &1561174861
PrefabInstance:
  m_ObjectHideFlags: 0
  serializedVersion: 2
  m_Modification:
    m_TransformParent: {fileID: 1451909041}
    m_Modifications:
    - target: {fileID: 3017829876529648216, guid: 7e2da63661d3d4db8a760ce1d9c3e105,
        type: 3}
      propertyPath: m_Name
      value: Button
      objectReference: {fileID: 0}
    - target: {fileID: 3017829876529648217, guid: 7e2da63661d3d4db8a760ce1d9c3e105,
        type: 3}
      propertyPath: m_LocalPosition.x
      value: 0
      objectReference: {fileID: 0}
    - target: {fileID: 3017829876529648217, guid: 7e2da63661d3d4db8a760ce1d9c3e105,
        type: 3}
      propertyPath: m_LocalPosition.y
      value: 0
      objectReference: {fileID: 0}
    - target: {fileID: 3017829876529648217, guid: 7e2da63661d3d4db8a760ce1d9c3e105,
        type: 3}
      propertyPath: m_LocalPosition.z
      value: 0
      objectReference: {fileID: 0}
    - target: {fileID: 3017829876529648217, guid: 7e2da63661d3d4db8a760ce1d9c3e105,
        type: 3}
      propertyPath: m_LocalRotation.x
      value: 0
      objectReference: {fileID: 0}
    - target: {fileID: 3017829876529648217, guid: 7e2da63661d3d4db8a760ce1d9c3e105,
        type: 3}
      propertyPath: m_LocalRotation.y
      value: 0
      objectReference: {fileID: 0}
    - target: {fileID: 3017829876529648217, guid: 7e2da63661d3d4db8a760ce1d9c3e105,
        type: 3}
      propertyPath: m_LocalRotation.z
      value: 0
      objectReference: {fileID: 0}
    - target: {fileID: 3017829876529648217, guid: 7e2da63661d3d4db8a760ce1d9c3e105,
        type: 3}
      propertyPath: m_LocalRotation.w
      value: 1
      objectReference: {fileID: 0}
    - target: {fileID: 3017829876529648217, guid: 7e2da63661d3d4db8a760ce1d9c3e105,
        type: 3}
      propertyPath: m_RootOrder
      value: 7
      objectReference: {fileID: 0}
    - target: {fileID: 3017829876529648217, guid: 7e2da63661d3d4db8a760ce1d9c3e105,
        type: 3}
      propertyPath: m_LocalEulerAnglesHint.x
      value: 0
      objectReference: {fileID: 0}
    - target: {fileID: 3017829876529648217, guid: 7e2da63661d3d4db8a760ce1d9c3e105,
        type: 3}
      propertyPath: m_LocalEulerAnglesHint.y
      value: 0
      objectReference: {fileID: 0}
    - target: {fileID: 3017829876529648217, guid: 7e2da63661d3d4db8a760ce1d9c3e105,
        type: 3}
      propertyPath: m_LocalEulerAnglesHint.z
      value: 0
      objectReference: {fileID: 0}
    - target: {fileID: 3017829876529648217, guid: 7e2da63661d3d4db8a760ce1d9c3e105,
        type: 3}
      propertyPath: m_AnchoredPosition.x
      value: -424.8
      objectReference: {fileID: 0}
    - target: {fileID: 3017829876529648217, guid: 7e2da63661d3d4db8a760ce1d9c3e105,
        type: 3}
      propertyPath: m_AnchoredPosition.y
      value: 323.78
      objectReference: {fileID: 0}
    - target: {fileID: 3017829876529648217, guid: 7e2da63661d3d4db8a760ce1d9c3e105,
        type: 3}
      propertyPath: m_SizeDelta.x
      value: 85.42
      objectReference: {fileID: 0}
    - target: {fileID: 3017829876529648217, guid: 7e2da63661d3d4db8a760ce1d9c3e105,
        type: 3}
      propertyPath: m_SizeDelta.y
      value: 92.508
      objectReference: {fileID: 0}
    - target: {fileID: 3017829876529648217, guid: 7e2da63661d3d4db8a760ce1d9c3e105,
        type: 3}
      propertyPath: m_AnchorMin.x
      value: 0.5
      objectReference: {fileID: 0}
    - target: {fileID: 3017829876529648217, guid: 7e2da63661d3d4db8a760ce1d9c3e105,
        type: 3}
      propertyPath: m_AnchorMin.y
      value: 0.5
      objectReference: {fileID: 0}
    - target: {fileID: 3017829876529648217, guid: 7e2da63661d3d4db8a760ce1d9c3e105,
        type: 3}
      propertyPath: m_AnchorMax.x
      value: 0.5
      objectReference: {fileID: 0}
    - target: {fileID: 3017829876529648217, guid: 7e2da63661d3d4db8a760ce1d9c3e105,
        type: 3}
      propertyPath: m_AnchorMax.y
      value: 0.5
      objectReference: {fileID: 0}
    - target: {fileID: 3017829876529648217, guid: 7e2da63661d3d4db8a760ce1d9c3e105,
        type: 3}
      propertyPath: m_Pivot.x
      value: 0.5
      objectReference: {fileID: 0}
    - target: {fileID: 3017829876529648217, guid: 7e2da63661d3d4db8a760ce1d9c3e105,
        type: 3}
      propertyPath: m_Pivot.y
      value: 0.5
      objectReference: {fileID: 0}
    - target: {fileID: 3017829876529648222, guid: 7e2da63661d3d4db8a760ce1d9c3e105,
        type: 3}
      propertyPath: m_OnClick.m_PersistentCalls.m_Calls.Array.size
      value: 2
      objectReference: {fileID: 0}
    - target: {fileID: 3017829876529648222, guid: 7e2da63661d3d4db8a760ce1d9c3e105,
        type: 3}
      propertyPath: m_OnClick.m_PersistentCalls.m_Calls.Array.data[0].m_Target
      value: 
      objectReference: {fileID: 534669906}
    - target: {fileID: 3017829876529648222, guid: 7e2da63661d3d4db8a760ce1d9c3e105,
        type: 3}
      propertyPath: m_OnClick.m_PersistentCalls.m_Calls.Array.data[0].m_Arguments.m_IntArgument
      value: 26
      objectReference: {fileID: 0}
    - target: {fileID: 3017829876529648222, guid: 7e2da63661d3d4db8a760ce1d9c3e105,
        type: 3}
      propertyPath: m_OnClick.m_PersistentCalls.m_Calls.Array.data[1].m_Mode
      value: 4
      objectReference: {fileID: 0}
    - target: {fileID: 3017829876529648222, guid: 7e2da63661d3d4db8a760ce1d9c3e105,
        type: 3}
      propertyPath: m_OnClick.m_PersistentCalls.m_Calls.Array.data[1].m_CallState
      value: 2
      objectReference: {fileID: 0}
    - target: {fileID: 3017829876529648222, guid: 7e2da63661d3d4db8a760ce1d9c3e105,
        type: 3}
      propertyPath: m_OnClick.m_PersistentCalls.m_Calls.Array.data[1].m_Target
      value: 
      objectReference: {fileID: 1561174864}
    - target: {fileID: 3017829876529648222, guid: 7e2da63661d3d4db8a760ce1d9c3e105,
        type: 3}
      propertyPath: m_OnClick.m_PersistentCalls.m_Calls.Array.data[1].m_MethodName
      value: CheckMusic
      objectReference: {fileID: 0}
    - target: {fileID: 3017829876529648222, guid: 7e2da63661d3d4db8a760ce1d9c3e105,
        type: 3}
      propertyPath: m_OnClick.m_PersistentCalls.m_Calls.Array.data[1].m_Arguments.m_ObjectArgumentAssemblyTypeName
      value: UnityEngine.Object, UnityEngine
      objectReference: {fileID: 0}
    - target: {fileID: 3017829876529648222, guid: 7e2da63661d3d4db8a760ce1d9c3e105,
        type: 3}
      propertyPath: m_OnClick.m_PersistentCalls.m_Calls.Array.data[1].m_Arguments.m_FloatArgument
      value: 0.111
      objectReference: {fileID: 0}
    m_RemovedComponents: []
  m_SourcePrefab: {fileID: 100100000, guid: 7e2da63661d3d4db8a760ce1d9c3e105, type: 3}
--- !u!224 &1561174862 stripped
RectTransform:
  m_CorrespondingSourceObject: {fileID: 3017829876529648217, guid: 7e2da63661d3d4db8a760ce1d9c3e105,
    type: 3}
  m_PrefabInstance: {fileID: 1561174861}
  m_PrefabAsset: {fileID: 0}
--- !u!1 &1561174863 stripped
GameObject:
  m_CorrespondingSourceObject: {fileID: 3017829876529648216, guid: 7e2da63661d3d4db8a760ce1d9c3e105,
    type: 3}
  m_PrefabInstance: {fileID: 1561174861}
  m_PrefabAsset: {fileID: 0}
--- !u!114 &1561174864
MonoBehaviour:
  m_ObjectHideFlags: 0
  m_CorrespondingSourceObject: {fileID: 0}
  m_PrefabInstance: {fileID: 0}
  m_PrefabAsset: {fileID: 0}
  m_GameObject: {fileID: 1561174863}
  m_Enabled: 1
  m_EditorHideFlags: 0
  m_Script: {fileID: 11500000, guid: 18cad74d125de4e92b21182cbead478a, type: 3}
  m_Name: 
  m_EditorClassIdentifier: 
  hor: {fileID: 0}
  Next: {fileID: 0}
  Previous: {fileID: 0}
--- !u!1 &1604330842
GameObject:
  m_ObjectHideFlags: 0
  m_CorrespondingSourceObject: {fileID: 0}
  m_PrefabInstance: {fileID: 0}
  m_PrefabAsset: {fileID: 0}
  serializedVersion: 6
  m_Component:
  - component: {fileID: 1604330843}
  - component: {fileID: 1604330845}
  - component: {fileID: 1604330844}
  - component: {fileID: 1604330846}
  m_Layer: 5
  m_Name: Image
  m_TagString: Untagged
  m_Icon: {fileID: 0}
  m_NavMeshLayer: 0
  m_StaticEditorFlags: 0
  m_IsActive: 1
--- !u!224 &1604330843
RectTransform:
  m_ObjectHideFlags: 0
  m_CorrespondingSourceObject: {fileID: 0}
  m_PrefabInstance: {fileID: 0}
  m_PrefabAsset: {fileID: 0}
  m_GameObject: {fileID: 1604330842}
  m_LocalRotation: {x: 0, y: 0, z: 0, w: 1}
  m_LocalPosition: {x: 0, y: 0, z: 0}
  m_LocalScale: {x: 1, y: 1, z: 1}
  m_Children: []
  m_Father: {fileID: 463830922}
  m_RootOrder: 0
  m_LocalEulerAnglesHint: {x: 0, y: 0, z: 0}
  m_AnchorMin: {x: 0.5, y: 0.5}
  m_AnchorMax: {x: 0.5, y: 0.5}
  m_AnchoredPosition: {x: 58.3, y: 35.65}
  m_SizeDelta: {x: 831.1, y: 485.47}
  m_Pivot: {x: 0.5, y: 0.5}
--- !u!114 &1604330844
MonoBehaviour:
  m_ObjectHideFlags: 0
  m_CorrespondingSourceObject: {fileID: 0}
  m_PrefabInstance: {fileID: 0}
  m_PrefabAsset: {fileID: 0}
  m_GameObject: {fileID: 1604330842}
  m_Enabled: 1
  m_EditorHideFlags: 0
  m_Script: {fileID: -765806418, guid: f70555f144d8491a825f0804e09c671c, type: 3}
  m_Name: 
  m_EditorClassIdentifier: 
  m_Material: {fileID: 0}
  m_Color: {r: 1, g: 1, b: 1, a: 1}
  m_RaycastTarget: 0
  m_OnCullStateChanged:
    m_PersistentCalls:
      m_Calls: []
    m_TypeName: UnityEngine.UI.MaskableGraphic+CullStateChangedEvent, UnityEngine.UI,
      Version=1.0.0.0, Culture=neutral, PublicKeyToken=null
  m_Sprite: {fileID: 21300000, guid: 5d37cf638d92947b88d7b2d6a195b988, type: 3}
  m_Type: 0
  m_PreserveAspect: 0
  m_FillCenter: 1
  m_FillMethod: 4
  m_FillAmount: 1
  m_FillClockwise: 1
  m_FillOrigin: 0
  m_UseSpriteMesh: 0
--- !u!222 &1604330845
CanvasRenderer:
  m_ObjectHideFlags: 0
  m_CorrespondingSourceObject: {fileID: 0}
  m_PrefabInstance: {fileID: 0}
  m_PrefabAsset: {fileID: 0}
  m_GameObject: {fileID: 1604330842}
  m_CullTransparentMesh: 0
--- !u!111 &1604330846
Animation:
  m_ObjectHideFlags: 0
  m_CorrespondingSourceObject: {fileID: 0}
  m_PrefabInstance: {fileID: 0}
  m_PrefabAsset: {fileID: 0}
  m_GameObject: {fileID: 1604330842}
  m_Enabled: 1
  serializedVersion: 3
  m_Animation: {fileID: 7400000, guid: 330605170b2ad416384f387b0041df7b, type: 2}
  m_Animations:
  - {fileID: 7400000, guid: 330605170b2ad416384f387b0041df7b, type: 2}
  m_WrapMode: 8
  m_PlayAutomatically: 1
  m_AnimatePhysics: 0
  m_CullingType: 0
--- !u!1001 &1652822790
PrefabInstance:
  m_ObjectHideFlags: 0
  serializedVersion: 2
  m_Modification:
    m_TransformParent: {fileID: 0}
    m_Modifications:
    - target: {fileID: 493235299714050119, guid: 998d20481f08e4479863b6202f9ead02,
        type: 3}
      propertyPath: m_Name
      value: Canvas 4
      objectReference: {fileID: 0}
    - target: {fileID: 493235299714050115, guid: 998d20481f08e4479863b6202f9ead02,
        type: 3}
      propertyPath: m_LocalPosition.x
      value: 0
      objectReference: {fileID: 0}
    - target: {fileID: 493235299714050115, guid: 998d20481f08e4479863b6202f9ead02,
        type: 3}
      propertyPath: m_LocalPosition.y
      value: 0
      objectReference: {fileID: 0}
    - target: {fileID: 493235299714050115, guid: 998d20481f08e4479863b6202f9ead02,
        type: 3}
      propertyPath: m_LocalPosition.z
      value: 0
      objectReference: {fileID: 0}
    - target: {fileID: 493235299714050115, guid: 998d20481f08e4479863b6202f9ead02,
        type: 3}
      propertyPath: m_LocalRotation.x
      value: 0
      objectReference: {fileID: 0}
    - target: {fileID: 493235299714050115, guid: 998d20481f08e4479863b6202f9ead02,
        type: 3}
      propertyPath: m_LocalRotation.y
      value: 0
      objectReference: {fileID: 0}
    - target: {fileID: 493235299714050115, guid: 998d20481f08e4479863b6202f9ead02,
        type: 3}
      propertyPath: m_LocalRotation.z
      value: 0
      objectReference: {fileID: 0}
    - target: {fileID: 493235299714050115, guid: 998d20481f08e4479863b6202f9ead02,
        type: 3}
      propertyPath: m_LocalRotation.w
      value: 1
      objectReference: {fileID: 0}
    - target: {fileID: 493235299714050115, guid: 998d20481f08e4479863b6202f9ead02,
        type: 3}
      propertyPath: m_RootOrder
      value: 3
      objectReference: {fileID: 0}
    - target: {fileID: 493235299714050115, guid: 998d20481f08e4479863b6202f9ead02,
        type: 3}
      propertyPath: m_LocalEulerAnglesHint.x
      value: 0
      objectReference: {fileID: 0}
    - target: {fileID: 493235299714050115, guid: 998d20481f08e4479863b6202f9ead02,
        type: 3}
      propertyPath: m_LocalEulerAnglesHint.y
      value: 0
      objectReference: {fileID: 0}
    - target: {fileID: 493235299714050115, guid: 998d20481f08e4479863b6202f9ead02,
        type: 3}
      propertyPath: m_LocalEulerAnglesHint.z
      value: 0
      objectReference: {fileID: 0}
    - target: {fileID: 493235299714050115, guid: 998d20481f08e4479863b6202f9ead02,
        type: 3}
      propertyPath: m_AnchoredPosition.x
      value: 0
      objectReference: {fileID: 0}
    - target: {fileID: 493235299714050115, guid: 998d20481f08e4479863b6202f9ead02,
        type: 3}
      propertyPath: m_AnchoredPosition.y
      value: 0
      objectReference: {fileID: 0}
    - target: {fileID: 493235299714050115, guid: 998d20481f08e4479863b6202f9ead02,
        type: 3}
      propertyPath: m_SizeDelta.x
      value: 0
      objectReference: {fileID: 0}
    - target: {fileID: 493235299714050115, guid: 998d20481f08e4479863b6202f9ead02,
        type: 3}
      propertyPath: m_SizeDelta.y
      value: 0
      objectReference: {fileID: 0}
    - target: {fileID: 493235299714050115, guid: 998d20481f08e4479863b6202f9ead02,
        type: 3}
      propertyPath: m_AnchorMin.x
      value: 0
      objectReference: {fileID: 0}
    - target: {fileID: 493235299714050115, guid: 998d20481f08e4479863b6202f9ead02,
        type: 3}
      propertyPath: m_AnchorMin.y
      value: 0
      objectReference: {fileID: 0}
    - target: {fileID: 493235299714050115, guid: 998d20481f08e4479863b6202f9ead02,
        type: 3}
      propertyPath: m_AnchorMax.x
      value: 0
      objectReference: {fileID: 0}
    - target: {fileID: 493235299714050115, guid: 998d20481f08e4479863b6202f9ead02,
        type: 3}
      propertyPath: m_AnchorMax.y
      value: 0
      objectReference: {fileID: 0}
    - target: {fileID: 493235299714050115, guid: 998d20481f08e4479863b6202f9ead02,
        type: 3}
      propertyPath: m_Pivot.x
      value: 0
      objectReference: {fileID: 0}
    - target: {fileID: 493235299714050115, guid: 998d20481f08e4479863b6202f9ead02,
        type: 3}
      propertyPath: m_Pivot.y
      value: 0
      objectReference: {fileID: 0}
    - target: {fileID: 493235299714050112, guid: 998d20481f08e4479863b6202f9ead02,
        type: 3}
      propertyPath: m_Camera
      value: 
      objectReference: {fileID: 534669904}
    m_RemovedComponents: []
  m_SourcePrefab: {fileID: 100100000, guid: 998d20481f08e4479863b6202f9ead02, type: 3}
--- !u!1001 &1771798039
PrefabInstance:
  m_ObjectHideFlags: 0
  serializedVersion: 2
  m_Modification:
    m_TransformParent: {fileID: 463830922}
    m_Modifications:
    - target: {fileID: 23468382841581740, guid: a1dc168faef354bef851e69410fa0045,
        type: 3}
      propertyPath: m_Name
      value: Next
      objectReference: {fileID: 0}
    - target: {fileID: 23468382841581740, guid: a1dc168faef354bef851e69410fa0045,
        type: 3}
      propertyPath: m_IsActive
      value: 0
      objectReference: {fileID: 0}
    - target: {fileID: 23468382841581714, guid: a1dc168faef354bef851e69410fa0045,
        type: 3}
      propertyPath: m_OnClick.m_PersistentCalls.m_Calls.Array.data[0].m_Target
      value: 
      objectReference: {fileID: 463830925}
    - target: {fileID: 23468382841581714, guid: a1dc168faef354bef851e69410fa0045,
        type: 3}
      propertyPath: m_OnClick.m_PersistentCalls.m_Calls.Array.data[0].m_MethodName
      value: Increment
      objectReference: {fileID: 0}
    - target: {fileID: 23468382841581715, guid: a1dc168faef354bef851e69410fa0045,
        type: 3}
      propertyPath: m_LocalPosition.x
      value: 0
      objectReference: {fileID: 0}
    - target: {fileID: 23468382841581715, guid: a1dc168faef354bef851e69410fa0045,
        type: 3}
      propertyPath: m_LocalPosition.y
      value: 0
      objectReference: {fileID: 0}
    - target: {fileID: 23468382841581715, guid: a1dc168faef354bef851e69410fa0045,
        type: 3}
      propertyPath: m_LocalPosition.z
      value: 0
      objectReference: {fileID: 0}
    - target: {fileID: 23468382841581715, guid: a1dc168faef354bef851e69410fa0045,
        type: 3}
      propertyPath: m_LocalRotation.x
      value: 0
      objectReference: {fileID: 0}
    - target: {fileID: 23468382841581715, guid: a1dc168faef354bef851e69410fa0045,
        type: 3}
      propertyPath: m_LocalRotation.y
      value: 0
      objectReference: {fileID: 0}
    - target: {fileID: 23468382841581715, guid: a1dc168faef354bef851e69410fa0045,
        type: 3}
      propertyPath: m_LocalRotation.z
      value: 1
      objectReference: {fileID: 0}
    - target: {fileID: 23468382841581715, guid: a1dc168faef354bef851e69410fa0045,
        type: 3}
      propertyPath: m_LocalRotation.w
      value: 0
      objectReference: {fileID: 0}
    - target: {fileID: 23468382841581715, guid: a1dc168faef354bef851e69410fa0045,
        type: 3}
      propertyPath: m_RootOrder
      value: 1
      objectReference: {fileID: 0}
    - target: {fileID: 23468382841581715, guid: a1dc168faef354bef851e69410fa0045,
        type: 3}
      propertyPath: m_LocalEulerAnglesHint.x
      value: 0
      objectReference: {fileID: 0}
    - target: {fileID: 23468382841581715, guid: a1dc168faef354bef851e69410fa0045,
        type: 3}
      propertyPath: m_LocalEulerAnglesHint.y
      value: 0
      objectReference: {fileID: 0}
    - target: {fileID: 23468382841581715, guid: a1dc168faef354bef851e69410fa0045,
        type: 3}
      propertyPath: m_LocalEulerAnglesHint.z
      value: 180
      objectReference: {fileID: 0}
    - target: {fileID: 23468382841581715, guid: a1dc168faef354bef851e69410fa0045,
        type: 3}
      propertyPath: m_AnchoredPosition.x
      value: 418.4
      objectReference: {fileID: 0}
    - target: {fileID: 23468382841581715, guid: a1dc168faef354bef851e69410fa0045,
        type: 3}
      propertyPath: m_AnchoredPosition.y
      value: -256.4
      objectReference: {fileID: 0}
    - target: {fileID: 23468382841581715, guid: a1dc168faef354bef851e69410fa0045,
        type: 3}
      propertyPath: m_SizeDelta.x
      value: 79.8
      objectReference: {fileID: 0}
    - target: {fileID: 23468382841581715, guid: a1dc168faef354bef851e69410fa0045,
        type: 3}
      propertyPath: m_SizeDelta.y
      value: 76.2
      objectReference: {fileID: 0}
    - target: {fileID: 23468382841581715, guid: a1dc168faef354bef851e69410fa0045,
        type: 3}
      propertyPath: m_AnchorMin.x
      value: 0.5
      objectReference: {fileID: 0}
    - target: {fileID: 23468382841581715, guid: a1dc168faef354bef851e69410fa0045,
        type: 3}
      propertyPath: m_AnchorMin.y
      value: 0.5
      objectReference: {fileID: 0}
    - target: {fileID: 23468382841581715, guid: a1dc168faef354bef851e69410fa0045,
        type: 3}
      propertyPath: m_AnchorMax.x
      value: 0.5
      objectReference: {fileID: 0}
    - target: {fileID: 23468382841581715, guid: a1dc168faef354bef851e69410fa0045,
        type: 3}
      propertyPath: m_AnchorMax.y
      value: 0.5
      objectReference: {fileID: 0}
    - target: {fileID: 23468382841581715, guid: a1dc168faef354bef851e69410fa0045,
        type: 3}
      propertyPath: m_Pivot.x
      value: 0.5
      objectReference: {fileID: 0}
    - target: {fileID: 23468382841581715, guid: a1dc168faef354bef851e69410fa0045,
        type: 3}
      propertyPath: m_Pivot.y
      value: 0.5
      objectReference: {fileID: 0}
    - target: {fileID: 23468382841581719, guid: a1dc168faef354bef851e69410fa0045,
        type: 3}
      propertyPath: Target
      value: 
      objectReference: {fileID: 0}
    - target: {fileID: 23468382841581719, guid: a1dc168faef354bef851e69410fa0045,
        type: 3}
      propertyPath: Value
      value: 1
      objectReference: {fileID: 0}
    m_RemovedComponents:
    - {fileID: 23468382841581719, guid: a1dc168faef354bef851e69410fa0045, type: 3}
  m_SourcePrefab: {fileID: 100100000, guid: a1dc168faef354bef851e69410fa0045, type: 3}
--- !u!224 &1771798040 stripped
RectTransform:
  m_CorrespondingSourceObject: {fileID: 23468382841581715, guid: a1dc168faef354bef851e69410fa0045,
    type: 3}
  m_PrefabInstance: {fileID: 1771798039}
  m_PrefabAsset: {fileID: 0}
--- !u!1 &1868245491
GameObject:
  m_ObjectHideFlags: 0
  m_CorrespondingSourceObject: {fileID: 0}
  m_PrefabInstance: {fileID: 0}
  m_PrefabAsset: {fileID: 0}
  serializedVersion: 6
  m_Component:
  - component: {fileID: 1868245492}
  - component: {fileID: 1868245494}
  - component: {fileID: 1868245493}
  - component: {fileID: 1868245495}
  m_Layer: 5
  m_Name: Black
  m_TagString: Untagged
  m_Icon: {fileID: 0}
  m_NavMeshLayer: 0
  m_StaticEditorFlags: 0
  m_IsActive: 1
--- !u!224 &1868245492
RectTransform:
  m_ObjectHideFlags: 0
  m_CorrespondingSourceObject: {fileID: 0}
  m_PrefabInstance: {fileID: 0}
  m_PrefabAsset: {fileID: 0}
  m_GameObject: {fileID: 1868245491}
  m_LocalRotation: {x: -0, y: -0, z: -0, w: 1}
  m_LocalPosition: {x: 0, y: 0, z: 0}
  m_LocalScale: {x: 1, y: 1, z: 1}
  m_Children: []
  m_Father: {fileID: 1451909041}
  m_RootOrder: 2
  m_LocalEulerAnglesHint: {x: 0, y: 0, z: 9.246613}
  m_AnchorMin: {x: 0.5, y: 0.5}
  m_AnchorMax: {x: 0.5, y: 0.5}
  m_AnchoredPosition: {x: 0, y: 0}
  m_SizeDelta: {x: 1024, y: 768}
  m_Pivot: {x: 0.5, y: 0.5}
--- !u!114 &1868245493
MonoBehaviour:
  m_ObjectHideFlags: 0
  m_CorrespondingSourceObject: {fileID: 0}
  m_PrefabInstance: {fileID: 0}
  m_PrefabAsset: {fileID: 0}
  m_GameObject: {fileID: 1868245491}
  m_Enabled: 1
  m_EditorHideFlags: 0
  m_Script: {fileID: -765806418, guid: f70555f144d8491a825f0804e09c671c, type: 3}
  m_Name: 
  m_EditorClassIdentifier: 
  m_Material: {fileID: 0}
  m_Color: {r: 0, g: 0, b: 0, a: 0}
  m_RaycastTarget: 0
  m_OnCullStateChanged:
    m_PersistentCalls:
      m_Calls: []
    m_TypeName: UnityEngine.UI.MaskableGraphic+CullStateChangedEvent, UnityEngine.UI,
      Version=1.0.0.0, Culture=neutral, PublicKeyToken=null
  m_Sprite: {fileID: 0}
  m_Type: 0
  m_PreserveAspect: 0
  m_FillCenter: 1
  m_FillMethod: 4
  m_FillAmount: 1
  m_FillClockwise: 1
  m_FillOrigin: 0
  m_UseSpriteMesh: 0
--- !u!222 &1868245494
CanvasRenderer:
  m_ObjectHideFlags: 0
  m_CorrespondingSourceObject: {fileID: 0}
  m_PrefabInstance: {fileID: 0}
  m_PrefabAsset: {fileID: 0}
  m_GameObject: {fileID: 1868245491}
  m_CullTransparentMesh: 0
--- !u!95 &1868245495
Animator:
  serializedVersion: 3
  m_ObjectHideFlags: 0
  m_CorrespondingSourceObject: {fileID: 0}
  m_PrefabInstance: {fileID: 0}
  m_PrefabAsset: {fileID: 0}
  m_GameObject: {fileID: 1868245491}
  m_Enabled: 1
  m_Avatar: {fileID: 0}
  m_Controller: {fileID: 9100000, guid: a0bf11ebbb36e4688a325234e2fa4aaa, type: 2}
  m_CullingMode: 0
  m_UpdateMode: 0
  m_ApplyRootMotion: 0
  m_LinearVelocityBlending: 0
  m_WarningMessage: 
  m_HasTransformHierarchy: 1
  m_AllowConstantClipSamplingOptimization: 1
  m_KeepAnimatorControllerStateOnDisable: 0
--- !u!1001 &2018269913
PrefabInstance:
  m_ObjectHideFlags: 0
  serializedVersion: 2
  m_Modification:
    m_TransformParent: {fileID: 1451909041}
    m_Modifications:
    - target: {fileID: 2064836398, guid: 9fadc85c3197e4bc49773b07901174d9, type: 3}
      propertyPath: m_Name
      value: Background
      objectReference: {fileID: 0}
    - target: {fileID: 44171923, guid: 9fadc85c3197e4bc49773b07901174d9, type: 3}
      propertyPath: m_LocalPosition.x
      value: 0
      objectReference: {fileID: 0}
    - target: {fileID: 44171923, guid: 9fadc85c3197e4bc49773b07901174d9, type: 3}
      propertyPath: m_LocalPosition.y
      value: 0
      objectReference: {fileID: 0}
    - target: {fileID: 44171923, guid: 9fadc85c3197e4bc49773b07901174d9, type: 3}
      propertyPath: m_LocalPosition.z
      value: 0
      objectReference: {fileID: 0}
    - target: {fileID: 44171923, guid: 9fadc85c3197e4bc49773b07901174d9, type: 3}
      propertyPath: m_LocalRotation.x
      value: 0
      objectReference: {fileID: 0}
    - target: {fileID: 44171923, guid: 9fadc85c3197e4bc49773b07901174d9, type: 3}
      propertyPath: m_LocalRotation.y
      value: 0
      objectReference: {fileID: 0}
    - target: {fileID: 44171923, guid: 9fadc85c3197e4bc49773b07901174d9, type: 3}
      propertyPath: m_LocalRotation.z
      value: 0
      objectReference: {fileID: 0}
    - target: {fileID: 44171923, guid: 9fadc85c3197e4bc49773b07901174d9, type: 3}
      propertyPath: m_LocalRotation.w
      value: 1
      objectReference: {fileID: 0}
    - target: {fileID: 44171923, guid: 9fadc85c3197e4bc49773b07901174d9, type: 3}
      propertyPath: m_RootOrder
      value: 0
      objectReference: {fileID: 0}
    - target: {fileID: 44171923, guid: 9fadc85c3197e4bc49773b07901174d9, type: 3}
      propertyPath: m_LocalEulerAnglesHint.x
      value: 0
      objectReference: {fileID: 0}
    - target: {fileID: 44171923, guid: 9fadc85c3197e4bc49773b07901174d9, type: 3}
      propertyPath: m_LocalEulerAnglesHint.y
      value: 0
      objectReference: {fileID: 0}
    - target: {fileID: 44171923, guid: 9fadc85c3197e4bc49773b07901174d9, type: 3}
      propertyPath: m_LocalEulerAnglesHint.z
      value: 0
      objectReference: {fileID: 0}
    - target: {fileID: 44171923, guid: 9fadc85c3197e4bc49773b07901174d9, type: 3}
      propertyPath: m_AnchoredPosition.x
      value: 0
      objectReference: {fileID: 0}
    - target: {fileID: 44171923, guid: 9fadc85c3197e4bc49773b07901174d9, type: 3}
      propertyPath: m_AnchoredPosition.y
      value: 0
      objectReference: {fileID: 0}
    - target: {fileID: 44171923, guid: 9fadc85c3197e4bc49773b07901174d9, type: 3}
      propertyPath: m_SizeDelta.x
      value: 100
      objectReference: {fileID: 0}
    - target: {fileID: 44171923, guid: 9fadc85c3197e4bc49773b07901174d9, type: 3}
      propertyPath: m_SizeDelta.y
      value: 100
      objectReference: {fileID: 0}
    - target: {fileID: 44171923, guid: 9fadc85c3197e4bc49773b07901174d9, type: 3}
      propertyPath: m_AnchorMin.x
      value: 0.5
      objectReference: {fileID: 0}
    - target: {fileID: 44171923, guid: 9fadc85c3197e4bc49773b07901174d9, type: 3}
      propertyPath: m_AnchorMin.y
      value: 0.5
      objectReference: {fileID: 0}
    - target: {fileID: 44171923, guid: 9fadc85c3197e4bc49773b07901174d9, type: 3}
      propertyPath: m_AnchorMax.x
      value: 0.5
      objectReference: {fileID: 0}
    - target: {fileID: 44171923, guid: 9fadc85c3197e4bc49773b07901174d9, type: 3}
      propertyPath: m_AnchorMax.y
      value: 0.5
      objectReference: {fileID: 0}
    - target: {fileID: 44171923, guid: 9fadc85c3197e4bc49773b07901174d9, type: 3}
      propertyPath: m_Pivot.x
      value: 0.5
      objectReference: {fileID: 0}
    - target: {fileID: 44171923, guid: 9fadc85c3197e4bc49773b07901174d9, type: 3}
      propertyPath: m_Pivot.y
      value: 0.5
      objectReference: {fileID: 0}
    - target: {fileID: 2912390008603001094, guid: 9fadc85c3197e4bc49773b07901174d9,
        type: 3}
      propertyPath: m_text
      value: 'GERHANA : DALIL'
      objectReference: {fileID: 0}
    - target: {fileID: 2912390008603001094, guid: 9fadc85c3197e4bc49773b07901174d9,
        type: 3}
      propertyPath: m_havePropertiesChanged
      value: 1
      objectReference: {fileID: 0}
    - target: {fileID: 2912390008603001094, guid: 9fadc85c3197e4bc49773b07901174d9,
        type: 3}
      propertyPath: m_isInputParsingRequired
      value: 1
      objectReference: {fileID: 0}
    - target: {fileID: 2912390008603001094, guid: 9fadc85c3197e4bc49773b07901174d9,
        type: 3}
      propertyPath: m_firstOverflowCharacterIndex
      value: -1
      objectReference: {fileID: 0}
    - target: {fileID: 2912390008603001094, guid: 9fadc85c3197e4bc49773b07901174d9,
        type: 3}
      propertyPath: m_textInfo.characterCount
      value: 14
      objectReference: {fileID: 0}
    - target: {fileID: 2912390008603001094, guid: 9fadc85c3197e4bc49773b07901174d9,
        type: 3}
      propertyPath: m_textInfo.spaceCount
      value: 2
      objectReference: {fileID: 0}
    - target: {fileID: 2912390008603001094, guid: 9fadc85c3197e4bc49773b07901174d9,
        type: 3}
      propertyPath: m_textInfo.wordCount
      value: 2
      objectReference: {fileID: 0}
    - target: {fileID: 2912390008603001094, guid: 9fadc85c3197e4bc49773b07901174d9,
        type: 3}
      propertyPath: m_textInfo.lineCount
      value: 1
      objectReference: {fileID: 0}
    - target: {fileID: 2912390008603001094, guid: 9fadc85c3197e4bc49773b07901174d9,
        type: 3}
      propertyPath: m_margin.z
      value: -516.578
      objectReference: {fileID: 0}
    - target: {fileID: 2912390008603001094, guid: 9fadc85c3197e4bc49773b07901174d9,
        type: 3}
      propertyPath: m_fontSize
      value: 24.7
      objectReference: {fileID: 0}
    - target: {fileID: 2912390008603001094, guid: 9fadc85c3197e4bc49773b07901174d9,
        type: 3}
      propertyPath: m_fontSizeBase
      value: 24.7
      objectReference: {fileID: 0}
    - target: {fileID: 2912390008603001094, guid: 9fadc85c3197e4bc49773b07901174d9,
        type: 3}
      propertyPath: m_fontColor.r
      value: 1
      objectReference: {fileID: 0}
    - target: {fileID: 2912390008603001094, guid: 9fadc85c3197e4bc49773b07901174d9,
        type: 3}
      propertyPath: m_fontColor.g
      value: 1
      objectReference: {fileID: 0}
    - target: {fileID: 2912390008603001094, guid: 9fadc85c3197e4bc49773b07901174d9,
        type: 3}
      propertyPath: m_fontColor.b
      value: 1
      objectReference: {fileID: 0}
    - target: {fileID: 2912390008603001094, guid: 9fadc85c3197e4bc49773b07901174d9,
        type: 3}
      propertyPath: m_fontColor32.rgba
      value: 4294967295
      objectReference: {fileID: 0}
    - target: {fileID: 1638226751, guid: 9fadc85c3197e4bc49773b07901174d9, type: 3}
      propertyPath: m_Sprite
      value: 
      objectReference: {fileID: 21300000, guid: 1272cd9f108ea4131add7249f9b20f7b,
        type: 3}
    - target: {fileID: 2912390008603001113, guid: 9fadc85c3197e4bc49773b07901174d9,
        type: 3}
      propertyPath: m_AnchoredPosition.y
      value: 243
      objectReference: {fileID: 0}
    - target: {fileID: 2912390008603001113, guid: 9fadc85c3197e4bc49773b07901174d9,
        type: 3}
      propertyPath: m_AnchoredPosition.x
      value: -297
      objectReference: {fileID: 0}
    - target: {fileID: 1101386574, guid: 9fadc85c3197e4bc49773b07901174d9, type: 3}
      propertyPath: m_RaycastTarget
      value: 0
      objectReference: {fileID: 0}
    m_RemovedComponents: []
  m_SourcePrefab: {fileID: 100100000, guid: 9fadc85c3197e4bc49773b07901174d9, type: 3}
--- !u!224 &2018269914 stripped
RectTransform:
  m_CorrespondingSourceObject: {fileID: 44171923, guid: 9fadc85c3197e4bc49773b07901174d9,
    type: 3}
  m_PrefabInstance: {fileID: 2018269913}
  m_PrefabAsset: {fileID: 0}
