%YAML 1.1
%TAG !u! tag:unity3d.com,2011:
--- !u!1 &493235299714050119
GameObject:
  m_ObjectHideFlags: 0
  m_CorrespondingSourceObject: {fileID: 0}
  m_PrefabInstance: {fileID: 0}
  m_PrefabAsset: {fileID: 0}
  serializedVersion: 6
  m_Component:
  - component: {fileID: 493235299714050115}
  - component: {fileID: 493235299714050112}
  - component: {fileID: 493235299714050113}
  - component: {fileID: 493235299714050118}
  m_Layer: 5
  m_Name: Canvas 1
  m_TagString: Untagged
  m_Icon: {fileID: 0}
  m_NavMeshLayer: 0
  m_StaticEditorFlags: 0
  m_IsActive: 1
--- !u!224 &493235299714050115
RectTransform:
  m_ObjectHideFlags: 0
  m_CorrespondingSourceObject: {fileID: 0}
  m_PrefabInstance: {fileID: 0}
  m_PrefabAsset: {fileID: 0}
  m_GameObject: {fileID: 493235299714050119}
  m_LocalRotation: {x: 0, y: 0, z: 0, w: 1}
  m_LocalPosition: {x: 0, y: 0, z: 0}
  m_LocalScale: {x: 0, y: 0, z: 0}
  m_Children:
  - {fileID: 4101376308418518081}
  m_Father: {fileID: 0}
  m_RootOrder: 0
  m_LocalEulerAnglesHint: {x: 0, y: 0, z: 0}
  m_AnchorMin: {x: 0, y: 0}
  m_AnchorMax: {x: 0, y: 0}
  m_AnchoredPosition: {x: 0, y: 0}
  m_SizeDelta: {x: 0, y: 0}
  m_Pivot: {x: 0, y: 0}
--- !u!223 &493235299714050112
Canvas:
  m_ObjectHideFlags: 0
  m_CorrespondingSourceObject: {fileID: 0}
  m_PrefabInstance: {fileID: 0}
  m_PrefabAsset: {fileID: 0}
  m_GameObject: {fileID: 493235299714050119}
  m_Enabled: 1
  serializedVersion: 3
  m_RenderMode: 1
  m_Camera: {fileID: 0}
  m_PlaneDistance: 100
  m_PixelPerfect: 0
  m_ReceivesEvents: 1
  m_OverrideSorting: 0
  m_OverridePixelPerfect: 0
  m_SortingBucketNormalizedSize: 0
  m_AdditionalShaderChannelsFlag: 25
  m_SortingLayerID: 0
  m_SortingOrder: 1
  m_TargetDisplay: 0
--- !u!114 &493235299714050113
MonoBehaviour:
  m_ObjectHideFlags: 0
  m_CorrespondingSourceObject: {fileID: 0}
  m_PrefabInstance: {fileID: 0}
  m_PrefabAsset: {fileID: 0}
  m_GameObject: {fileID: 493235299714050119}
  m_Enabled: 1
  m_EditorHideFlags: 0
  m_Script: {fileID: 1980459831, guid: f70555f144d8491a825f0804e09c671c, type: 3}
  m_Name: 
  m_EditorClassIdentifier: 
  m_UiScaleMode: 1
  m_ReferencePixelsPerUnit: 100
  m_ScaleFactor: 1
  m_ReferenceResolution: {x: 1024, y: 768}
  m_ScreenMatchMode: 0
  m_MatchWidthOrHeight: 0
  m_PhysicalUnit: 3
  m_FallbackScreenDPI: 96
  m_DefaultSpriteDPI: 96
  m_DynamicPixelsPerUnit: 1
--- !u!114 &493235299714050118
MonoBehaviour:
  m_ObjectHideFlags: 0
  m_CorrespondingSourceObject: {fileID: 0}
  m_PrefabInstance: {fileID: 0}
  m_PrefabAsset: {fileID: 0}
  m_GameObject: {fileID: 493235299714050119}
  m_Enabled: 1
  m_EditorHideFlags: 0
  m_Script: {fileID: 1301386320, guid: f70555f144d8491a825f0804e09c671c, type: 3}
  m_Name: 
  m_EditorClassIdentifier: 
  m_IgnoreReversedGraphics: 1
  m_BlockingObjects: 0
  m_BlockingMask:
    serializedVersion: 2
    m_Bits: 4294967295
--- !u!1001 &493235298885317608
PrefabInstance:
  m_ObjectHideFlags: 0
  serializedVersion: 2
  m_Modification:
    m_TransformParent: {fileID: 493235299714050115}
    m_Modifications:
    - target: {fileID: 4482021582251962282, guid: 92a8202b7b58f42299684aa05df3497c,
        type: 3}
      propertyPath: m_Name
      value: Logo Mufti
      objectReference: {fileID: 0}
    - target: {fileID: 4482021582251962281, guid: 92a8202b7b58f42299684aa05df3497c,
        type: 3}
      propertyPath: m_LocalPosition.x
      value: 0
      objectReference: {fileID: 0}
    - target: {fileID: 4482021582251962281, guid: 92a8202b7b58f42299684aa05df3497c,
        type: 3}
      propertyPath: m_LocalPosition.y
      value: 0
      objectReference: {fileID: 0}
    - target: {fileID: 4482021582251962281, guid: 92a8202b7b58f42299684aa05df3497c,
        type: 3}
      propertyPath: m_LocalPosition.z
      value: 0
      objectReference: {fileID: 0}
    - target: {fileID: 4482021582251962281, guid: 92a8202b7b58f42299684aa05df3497c,
        type: 3}
      propertyPath: m_LocalRotation.x
      value: 0
      objectReference: {fileID: 0}
    - target: {fileID: 4482021582251962281, guid: 92a8202b7b58f42299684aa05df3497c,
        type: 3}
      propertyPath: m_LocalRotation.y
      value: 0
      objectReference: {fileID: 0}
    - target: {fileID: 4482021582251962281, guid: 92a8202b7b58f42299684aa05df3497c,
        type: 3}
      propertyPath: m_LocalRotation.z
      value: 0
      objectReference: {fileID: 0}
    - target: {fileID: 4482021582251962281, guid: 92a8202b7b58f42299684aa05df3497c,
        type: 3}
      propertyPath: m_LocalRotation.w
      value: 1
      objectReference: {fileID: 0}
    - target: {fileID: 4482021582251962281, guid: 92a8202b7b58f42299684aa05df3497c,
        type: 3}
      propertyPath: m_RootOrder
      value: 0
      objectReference: {fileID: 0}
    - target: {fileID: 4482021582251962281, guid: 92a8202b7b58f42299684aa05df3497c,
        type: 3}
      propertyPath: m_LocalEulerAnglesHint.x
      value: 0
      objectReference: {fileID: 0}
    - target: {fileID: 4482021582251962281, guid: 92a8202b7b58f42299684aa05df3497c,
        type: 3}
      propertyPath: m_LocalEulerAnglesHint.y
      value: 0
      objectReference: {fileID: 0}
    - target: {fileID: 4482021582251962281, guid: 92a8202b7b58f42299684aa05df3497c,
        type: 3}
      propertyPath: m_LocalEulerAnglesHint.z
      value: 0
      objectReference: {fileID: 0}
    - target: {fileID: 4482021582251962281, guid: 92a8202b7b58f42299684aa05df3497c,
        type: 3}
      propertyPath: m_AnchoredPosition.x
      value: 135
      objectReference: {fileID: 0}
    - target: {fileID: 4482021582251962281, guid: 92a8202b7b58f42299684aa05df3497c,
        type: 3}
      propertyPath: m_AnchoredPosition.y
      value: 320
      objectReference: {fileID: 0}
    - target: {fileID: 4482021582251962281, guid: 92a8202b7b58f42299684aa05df3497c,
        type: 3}
      propertyPath: m_SizeDelta.x
      value: 247.9
      objectReference: {fileID: 0}
    - target: {fileID: 4482021582251962281, guid: 92a8202b7b58f42299684aa05df3497c,
        type: 3}
      propertyPath: m_SizeDelta.y
      value: 89.9
      objectReference: {fileID: 0}
    - target: {fileID: 4482021582251962281, guid: 92a8202b7b58f42299684aa05df3497c,
        type: 3}
      propertyPath: m_AnchorMin.x
      value: 0.5
      objectReference: {fileID: 0}
    - target: {fileID: 4482021582251962281, guid: 92a8202b7b58f42299684aa05df3497c,
        type: 3}
      propertyPath: m_AnchorMin.y
      value: 0.5
      objectReference: {fileID: 0}
    - target: {fileID: 4482021582251962281, guid: 92a8202b7b58f42299684aa05df3497c,
        type: 3}
      propertyPath: m_AnchorMax.x
      value: 0.5
      objectReference: {fileID: 0}
    - target: {fileID: 4482021582251962281, guid: 92a8202b7b58f42299684aa05df3497c,
        type: 3}
      propertyPath: m_AnchorMax.y
      value: 0.5
      objectReference: {fileID: 0}
    - target: {fileID: 4482021582251962281, guid: 92a8202b7b58f42299684aa05df3497c,
        type: 3}
      propertyPath: m_Pivot.x
      value: 0.5
      objectReference: {fileID: 0}
    - target: {fileID: 4482021582251962281, guid: 92a8202b7b58f42299684aa05df3497c,
        type: 3}
      propertyPath: m_Pivot.y
      value: 0.5
      objectReference: {fileID: 0}
    - target: {fileID: 4482021582251962280, guid: 92a8202b7b58f42299684aa05df3497c,
        type: 3}
      propertyPath: m_RaycastTarget
      value: 0
      objectReference: {fileID: 0}
    m_RemovedComponents: []
  m_SourcePrefab: {fileID: 100100000, guid: 92a8202b7b58f42299684aa05df3497c, type: 3}
--- !u!224 &4101376308418518081 stripped
RectTransform:
  m_CorrespondingSourceObject: {fileID: 4482021582251962281, guid: 92a8202b7b58f42299684aa05df3497c,
    type: 3}
  m_PrefabInstance: {fileID: 493235298885317608}
  m_PrefabAsset: {fileID: 0}
